{
	"lines":[
	"Powering your Timeship"
	," In addition to subsystems, your timeship requires Artron Energy to be able to fly."
	,"Your timeship requires Artron Capacitors to be placed in the Artron Panel of the Tardis Engine."
	]
}