[
  {
    "block": {
      "Name": "minecraft:cut_sandstone"
    },
    "x": 1285,
    "y": 77,
    "z": -448
  },
  {
    "block": {
      "Name": "minecraft:smooth_sandstone"
    },
    "x": 1286,
    "y": 77,
    "z": -448
  },
  {
    "block": {
      "Name": "minecraft:smooth_sandstone"
    },
    "x": 1287,
    "y": 77,
    "z": -448
  },
  {
    "block": {
      "Name": "minecraft:smooth_sandstone"
    },
    "x": 1288,
    "y": 77,
    "z": -448
  },
  {
    "block": {
      "Name": "minecraft:smooth_sandstone"
    },
    "x": 1289,
    "y": 77,
    "z": -448
  },
  {
    "block": {
      "Name": "minecraft:smooth_sandstone"
    },
    "x": 1290,
    "y": 77,
    "z": -448
  },
  {
    "block": {
      "Name": "minecraft:smooth_sandstone"
    },
    "x": 1291,
    "y": 77,
    "z": -448
  },
  {
    "block": {
      "Name": "minecraft:smooth_sandstone"
    },
    "x": 1292,
    "y": 77,
    "z": -448
  },
  {
    "block": {
      "Name": "minecraft:cut_sandstone"
    },
    "x": 1293,
    "y": 77,
    "z": -448
  },
  {
    "block": {
      "Name": "minecraft:cut_sandstone"
    },
    "x": 1285,
    "y": 78,
    "z": -448
  },
  {
    "block": {
      "Name": "minecraft:smooth_sandstone"
    },
    "x": 1286,
    "y": 78,
    "z": -448
  },
  {
    "block": {
      "Name": "minecraft:potted_cactus"
    },
    "x": 1287,
    "y": 78,
    "z": -448
  },
  {
    "block": {
      "Name": "minecraft:smooth_sandstone"
    },
    "x": 1288,
    "y": 78,
    "z": -448
  },
  {
    "block": {
      "Name": "minecraft:smooth_sandstone"
    },
    "x": 1289,
    "y": 78,
    "z": -448
  },
  {
    "block": {
      "Name": "minecraft:smooth_sandstone"
    },
    "x": 1290,
    "y": 78,
    "z": -448
  },
  {
    "block": {
      "Name": "minecraft:potted_cactus"
    },
    "x": 1291,
    "y": 78,
    "z": -448
  },
  {
    "block": {
      "Name": "minecraft:smooth_sandstone"
    },
    "x": 1292,
    "y": 78,
    "z": -448
  },
  {
    "block": {
      "Name": "minecraft:cut_sandstone"
    },
    "x": 1293,
    "y": 78,
    "z": -448
  },
  {
    "block": {
      "Name": "minecraft:cut_sandstone"
    },
    "x": 1285,
    "y": 79,
    "z": -448
  },
  {
    "block": {
      "Name": "minecraft:smooth_sandstone"
    },
    "x": 1286,
    "y": 79,
    "z": -448
  },
  {
    "block": {
      "Properties": {
        "waterlogged": "false",
        "type": "top"
      },
      "Name": "minecraft:sandstone_slab"
    },
    "x": 1287,
    "y": 79,
    "z": -448
  },
  {
    "block": {
      "Name": "minecraft:smooth_sandstone"
    },
    "x": 1288,
    "y": 79,
    "z": -448
  },
  {
    "block": {
      "Name": "minecraft:smooth_sandstone"
    },
    "x": 1289,
    "y": 79,
    "z": -448
  },
  {
    "block": {
      "Name": "minecraft:smooth_sandstone"
    },
    "x": 1290,
    "y": 79,
    "z": -448
  },
  {
    "block": {
      "Properties": {
        "waterlogged": "false",
        "type": "top"
      },
      "Name": "minecraft:sandstone_slab"
    },
    "x": 1291,
    "y": 79,
    "z": -448
  },
  {
    "block": {
      "Name": "minecraft:smooth_sandstone"
    },
    "x": 1292,
    "y": 79,
    "z": -448
  },
  {
    "block": {
      "Name": "minecraft:cut_sandstone"
    },
    "x": 1293,
    "y": 79,
    "z": -448
  },
  {
    "block": {
      "Name": "minecraft:cut_sandstone"
    },
    "x": 1285,
    "y": 80,
    "z": -448
  },
  {
    "block": {
      "Name": "minecraft:smooth_sandstone"
    },
    "x": 1286,
    "y": 80,
    "z": -448
  },
  {
    "block": {
      "Name": "minecraft:smooth_sandstone"
    },
    "x": 1287,
    "y": 80,
    "z": -448
  },
  {
    "block": {
      "Name": "minecraft:smooth_sandstone"
    },
    "x": 1288,
    "y": 80,
    "z": -448
  },
  {
    "block": {
      "Name": "minecraft:smooth_sandstone"
    },
    "x": 1289,
    "y": 80,
    "z": -448
  },
  {
    "block": {
      "Name": "minecraft:smooth_sandstone"
    },
    "x": 1290,
    "y": 80,
    "z": -448
  },
  {
    "block": {
      "Name": "minecraft:smooth_sandstone"
    },
    "x": 1291,
    "y": 80,
    "z": -448
  },
  {
    "block": {
      "Name": "minecraft:smooth_sandstone"
    },
    "x": 1292,
    "y": 80,
    "z": -448
  },
  {
    "block": {
      "Name": "minecraft:cut_sandstone"
    },
    "x": 1293,
    "y": 80,
    "z": -448
  },
  {
    "block": {
      "Name": "minecraft:cut_sandstone"
    },
    "x": 1285,
    "y": 81,
    "z": -448
  },
  {
    "block": {
      "Name": "minecraft:cut_sandstone"
    },
    "x": 1286,
    "y": 81,
    "z": -448
  },
  {
    "block": {
      "Name": "minecraft:cut_sandstone"
    },
    "x": 1287,
    "y": 81,
    "z": -448
  },
  {
    "block": {
      "Name": "minecraft:cut_sandstone"
    },
    "x": 1288,
    "y": 81,
    "z": -448
  },
  {
    "block": {
      "Name": "minecraft:cut_sandstone"
    },
    "x": 1289,
    "y": 81,
    "z": -448
  },
  {
    "block": {
      "Name": "minecraft:cut_sandstone"
    },
    "x": 1290,
    "y": 81,
    "z": -448
  },
  {
    "block": {
      "Name": "minecraft:cut_sandstone"
    },
    "x": 1291,
    "y": 81,
    "z": -448
  },
  {
    "block": {
      "Name": "minecraft:cut_sandstone"
    },
    "x": 1292,
    "y": 81,
    "z": -448
  },
  {
    "block": {
      "Name": "minecraft:cut_sandstone"
    },
    "x": 1293,
    "y": 81,
    "z": -448
  },
  {
    "block": {
      "Name": "minecraft:cut_sandstone"
    },
    "x": 1285,
    "y": 82,
    "z": -448
  },
  {
    "block": {
      "Name": "minecraft:cut_sandstone"
    },
    "x": 1293,
    "y": 82,
    "z": -448
  },
  {
    "block": {
      "Name": "minecraft:smooth_sandstone"
    },
    "x": 1285,
    "y": 77,
    "z": -447
  },
  {
    "block": {
      "Name": "minecraft:bookshelf"
    },
    "x": 1286,
    "y": 77,
    "z": -447
  },
  {
    "block": {
      "Properties": {
        "waterlogged": "false",
        "shape": "straight",
        "half": "bottom",
        "facing": "east"
      },
      "Name": "minecraft:smooth_sandstone_stairs"
    },
    "x": 1292,
    "y": 77,
    "z": -447
  },
  {
    "block": {
      "Name": "minecraft:smooth_sandstone"
    },
    "x": 1293,
    "y": 77,
    "z": -447
  },
  {
    "block": {
      "Name": "minecraft:smooth_sandstone"
    },
    "x": 1285,
    "y": 78,
    "z": -447
  },
  {
    "block": {
      "Name": "minecraft:bookshelf"
    },
    "x": 1286,
    "y": 78,
    "z": -447
  },
  {
    "block": {
      "Properties": {
        "facing": "south"
      },
      "Name": "minecraft:wall_torch"
    },
    "x": 1289,
    "y": 78,
    "z": -447
  },
  {
    "block": {
      "Name": "minecraft:smooth_sandstone"
    },
    "x": 1293,
    "y": 78,
    "z": -447
  },
  {
    "block": {
      "Name": "minecraft:smooth_sandstone"
    },
    "x": 1285,
    "y": 79,
    "z": -447
  },
  {
    "block": {
      "Name": "minecraft:bookshelf"
    },
    "x": 1286,
    "y": 79,
    "z": -447
  },
  {
    "block": {
      "Name": "minecraft:smooth_sandstone"
    },
    "x": 1293,
    "y": 79,
    "z": -447
  },
  {
    "block": {
      "Name": "minecraft:smooth_sandstone"
    },
    "x": 1285,
    "y": 80,
    "z": -447
  },
  {
    "block": {
      "Name": "minecraft:smooth_sandstone"
    },
    "x": 1286,
    "y": 80,
    "z": -447
  },
  {
    "block": {
      "Name": "minecraft:smooth_sandstone"
    },
    "x": 1287,
    "y": 80,
    "z": -447
  },
  {
    "block": {
      "Name": "minecraft:smooth_sandstone"
    },
    "x": 1288,
    "y": 80,
    "z": -447
  },
  {
    "block": {
      "Name": "minecraft:smooth_sandstone"
    },
    "x": 1289,
    "y": 80,
    "z": -447
  },
  {
    "block": {
      "Name": "minecraft:smooth_sandstone"
    },
    "x": 1290,
    "y": 80,
    "z": -447
  },
  {
    "block": {
      "Name": "minecraft:smooth_sandstone"
    },
    "x": 1291,
    "y": 80,
    "z": -447
  },
  {
    "block": {
      "Name": "minecraft:smooth_sandstone"
    },
    "x": 1292,
    "y": 80,
    "z": -447
  },
  {
    "block": {
      "Name": "minecraft:smooth_sandstone"
    },
    "x": 1293,
    "y": 80,
    "z": -447
  },
  {
    "block": {
      "Name": "minecraft:cut_sandstone"
    },
    "x": 1285,
    "y": 81,
    "z": -447
  },
  {
    "block": {
      "Name": "minecraft:cut_sandstone"
    },
    "x": 1293,
    "y": 81,
    "z": -447
  },
  {
    "block": {
      "Name": "minecraft:smooth_sandstone"
    },
    "x": 1285,
    "y": 77,
    "z": -446
  },
  {
    "block": {
      "Name": "minecraft:bookshelf"
    },
    "x": 1286,
    "y": 77,
    "z": -446
  },
  {
    "block": {
      "Name": "minecraft:white_carpet"
    },
    "x": 1288,
    "y": 77,
    "z": -446
  },
  {
    "block": {
      "Name": "minecraft:white_carpet"
    },
    "x": 1290,
    "y": 77,
    "z": -446
  },
  {
    "block": {
      "Properties": {
        "powered": "false",
        "has_book": "false",
        "facing": "west"
      },
      "Name": "minecraft:lectern"
    },
    "x": 1292,
    "y": 77,
    "z": -446
  },
  {
    "block": {
      "Name": "minecraft:smooth_sandstone"
    },
    "x": 1293,
    "y": 77,
    "z": -446
  },
  {
    "block": {
      "Name": "minecraft:smooth_sandstone"
    },
    "x": 1285,
    "y": 78,
    "z": -446
  },
  {
    "block": {
      "Name": "minecraft:bookshelf"
    },
    "x": 1286,
    "y": 78,
    "z": -446
  },
  {
    "block": {
      "Properties": {
        "facing": "west"
      },
      "Name": "minecraft:wall_torch"
    },
    "x": 1292,
    "y": 78,
    "z": -446
  },
  {
    "block": {
      "Name": "minecraft:smooth_sandstone"
    },
    "x": 1293,
    "y": 78,
    "z": -446
  },
  {
    "block": {
      "Name": "minecraft:smooth_sandstone"
    },
    "x": 1285,
    "y": 79,
    "z": -446
  },
  {
    "block": {
      "Name": "minecraft:bookshelf"
    },
    "x": 1286,
    "y": 79,
    "z": -446
  },
  {
    "block": {
      "Name": "minecraft:smooth_sandstone"
    },
    "x": 1293,
    "y": 79,
    "z": -446
  },
  {
    "block": {
      "Name": "minecraft:smooth_sandstone"
    },
    "x": 1285,
    "y": 80,
    "z": -446
  },
  {
    "block": {
      "Name": "minecraft:smooth_sandstone"
    },
    "x": 1286,
    "y": 80,
    "z": -446
  },
  {
    "block": {
      "Name": "minecraft:smooth_sandstone"
    },
    "x": 1287,
    "y": 80,
    "z": -446
  },
  {
    "block": {
      "Name": "minecraft:smooth_sandstone"
    },
    "x": 1288,
    "y": 80,
    "z": -446
  },
  {
    "block": {
      "Name": "minecraft:smooth_sandstone"
    },
    "x": 1289,
    "y": 80,
    "z": -446
  },
  {
    "block": {
      "Name": "minecraft:smooth_sandstone"
    },
    "x": 1290,
    "y": 80,
    "z": -446
  },
  {
    "block": {
      "Name": "minecraft:smooth_sandstone"
    },
    "x": 1291,
    "y": 80,
    "z": -446
  },
  {
    "block": {
      "Name": "minecraft:smooth_sandstone"
    },
    "x": 1292,
    "y": 80,
    "z": -446
  },
  {
    "block": {
      "Name": "minecraft:smooth_sandstone"
    },
    "x": 1293,
    "y": 80,
    "z": -446
  },
  {
    "block": {
      "Name": "minecraft:cut_sandstone"
    },
    "x": 1285,
    "y": 81,
    "z": -446
  },
  {
    "block": {
      "Name": "minecraft:cut_sandstone"
    },
    "x": 1293,
    "y": 81,
    "z": -446
  },
  {
    "block": {
      "Name": "minecraft:smooth_sandstone"
    },
    "x": 1285,
    "y": 77,
    "z": -445
  },
  {
    "block": {
      "Name": "minecraft:bookshelf"
    },
    "x": 1286,
    "y": 77,
    "z": -445
  },
  {
    "block": {
      "Properties": {
        "waterlogged": "false",
        "shape": "straight",
        "half": "bottom",
        "facing": "east"
      },
      "Name": "minecraft:smooth_sandstone_stairs"
    },
    "x": 1292,
    "y": 77,
    "z": -445
  },
  {
    "block": {
      "Name": "minecraft:smooth_sandstone"
    },
    "x": 1293,
    "y": 77,
    "z": -445
  },
  {
    "block": {
      "Name": "minecraft:smooth_sandstone"
    },
    "x": 1285,
    "y": 78,
    "z": -445
  },
  {
    "block": {
      "Name": "minecraft:bookshelf"
    },
    "x": 1286,
    "y": 78,
    "z": -445
  },
  {
    "block": {
      "Name": "minecraft:smooth_sandstone"
    },
    "x": 1293,
    "y": 78,
    "z": -445
  },
  {
    "block": {
      "Name": "minecraft:smooth_sandstone"
    },
    "x": 1285,
    "y": 79,
    "z": -445
  },
  {
    "block": {
      "Name": "minecraft:bookshelf"
    },
    "x": 1286,
    "y": 79,
    "z": -445
  },
  {
    "block": {
      "Name": "minecraft:smooth_sandstone"
    },
    "x": 1293,
    "y": 79,
    "z": -445
  },
  {
    "block": {
      "Name": "minecraft:smooth_sandstone"
    },
    "x": 1285,
    "y": 80,
    "z": -445
  },
  {
    "block": {
      "Name": "minecraft:smooth_sandstone"
    },
    "x": 1286,
    "y": 80,
    "z": -445
  },
  {
    "block": {
      "Name": "minecraft:smooth_sandstone"
    },
    "x": 1287,
    "y": 80,
    "z": -445
  },
  {
    "block": {
      "Name": "minecraft:smooth_sandstone"
    },
    "x": 1288,
    "y": 80,
    "z": -445
  },
  {
    "block": {
      "Name": "minecraft:smooth_sandstone"
    },
    "x": 1289,
    "y": 80,
    "z": -445
  },
  {
    "block": {
      "Name": "minecraft:smooth_sandstone"
    },
    "x": 1290,
    "y": 80,
    "z": -445
  },
  {
    "block": {
      "Name": "minecraft:smooth_sandstone"
    },
    "x": 1291,
    "y": 80,
    "z": -445
  },
  {
    "block": {
      "Name": "minecraft:smooth_sandstone"
    },
    "x": 1292,
    "y": 80,
    "z": -445
  },
  {
    "block": {
      "Name": "minecraft:smooth_sandstone"
    },
    "x": 1293,
    "y": 80,
    "z": -445
  },
  {
    "block": {
      "Name": "minecraft:cut_sandstone"
    },
    "x": 1285,
    "y": 81,
    "z": -445
  },
  {
    "block": {
      "Name": "minecraft:cut_sandstone"
    },
    "x": 1293,
    "y": 81,
    "z": -445
  },
  {
    "block": {
      "Name": "minecraft:cut_sandstone"
    },
    "x": 1285,
    "y": 77,
    "z": -444
  },
  {
    "block": {
      "Name": "minecraft:smooth_sandstone"
    },
    "x": 1286,
    "y": 77,
    "z": -444
  },
  {
    "block": {
      "Name": "minecraft:smooth_sandstone"
    },
    "x": 1287,
    "y": 77,
    "z": -444
  },
  {
    "block": {
      "Name": "minecraft:smooth_sandstone"
    },
    "x": 1288,
    "y": 77,
    "z": -444
  },
  {
    "block": {
      "Properties": {
        "powered": "false",
        "open": "false",
        "hinge": "left",
        "half": "lower",
        "facing": "south"
      },
      "Name": "minecraft:jungle_door"
    },
    "x": 1289,
    "y": 77,
    "z": -444
  },
  {
    "block": {
      "Name": "minecraft:smooth_sandstone"
    },
    "x": 1290,
    "y": 77,
    "z": -444
  },
  {
    "block": {
      "Name": "minecraft:smooth_sandstone"
    },
    "x": 1291,
    "y": 77,
    "z": -444
  },
  {
    "block": {
      "Name": "minecraft:smooth_sandstone"
    },
    "x": 1292,
    "y": 77,
    "z": -444
  },
  {
    "block": {
      "Name": "minecraft:cut_sandstone"
    },
    "x": 1293,
    "y": 77,
    "z": -444
  },
  {
    "block": {
      "Name": "minecraft:cut_sandstone"
    },
    "x": 1285,
    "y": 78,
    "z": -444
  },
  {
    "block": {
      "Name": "minecraft:smooth_sandstone"
    },
    "x": 1286,
    "y": 78,
    "z": -444
  },
  {
    "block": {
      "Name": "minecraft:potted_cactus"
    },
    "x": 1287,
    "y": 78,
    "z": -444
  },
  {
    "block": {
      "Name": "minecraft:smooth_sandstone"
    },
    "x": 1288,
    "y": 78,
    "z": -444
  },
  {
    "block": {
      "Properties": {
        "powered": "false",
        "open": "false",
        "hinge": "left",
        "half": "upper",
        "facing": "south"
      },
      "Name": "minecraft:jungle_door"
    },
    "x": 1289,
    "y": 78,
    "z": -444
  },
  {
    "block": {
      "Name": "minecraft:smooth_sandstone"
    },
    "x": 1290,
    "y": 78,
    "z": -444
  },
  {
    "block": {
      "Name": "minecraft:potted_cactus"
    },
    "x": 1291,
    "y": 78,
    "z": -444
  },
  {
    "block": {
      "Name": "minecraft:smooth_sandstone"
    },
    "x": 1292,
    "y": 78,
    "z": -444
  },
  {
    "block": {
      "Name": "minecraft:cut_sandstone"
    },
    "x": 1293,
    "y": 78,
    "z": -444
  },
  {
    "block": {
      "Name": "minecraft:cut_sandstone"
    },
    "x": 1285,
    "y": 79,
    "z": -444
  },
  {
    "block": {
      "Name": "minecraft:smooth_sandstone"
    },
    "x": 1286,
    "y": 79,
    "z": -444
  },
  {
    "block": {
      "Properties": {
        "waterlogged": "false",
        "type": "top"
      },
      "Name": "minecraft:sandstone_slab"
    },
    "x": 1287,
    "y": 79,
    "z": -444
  },
  {
    "block": {
      "Name": "minecraft:smooth_sandstone"
    },
    "x": 1288,
    "y": 79,
    "z": -444
  },
  {
    "block": {
      "Properties": {
        "waterlogged": "false",
        "type": "double"
      },
      "Name": "minecraft:sandstone_slab"
    },
    "x": 1289,
    "y": 79,
    "z": -444
  },
  {
    "block": {
      "Name": "minecraft:smooth_sandstone"
    },
    "x": 1290,
    "y": 79,
    "z": -444
  },
  {
    "block": {
      "Properties": {
        "waterlogged": "false",
        "type": "top"
      },
      "Name": "minecraft:sandstone_slab"
    },
    "x": 1291,
    "y": 79,
    "z": -444
  },
  {
    "block": {
      "Name": "minecraft:smooth_sandstone"
    },
    "x": 1292,
    "y": 79,
    "z": -444
  },
  {
    "block": {
      "Name": "minecraft:cut_sandstone"
    },
    "x": 1293,
    "y": 79,
    "z": -444
  },
  {
    "block": {
      "Name": "minecraft:cut_sandstone"
    },
    "x": 1285,
    "y": 80,
    "z": -444
  },
  {
    "block": {
      "Name": "minecraft:smooth_sandstone"
    },
    "x": 1286,
    "y": 80,
    "z": -444
  },
  {
    "block": {
      "Name": "minecraft:smooth_sandstone"
    },
    "x": 1287,
    "y": 80,
    "z": -444
  },
  {
    "block": {
      "Name": "minecraft:smooth_sandstone"
    },
    "x": 1288,
    "y": 80,
    "z": -444
  },
  {
    "block": {
      "Name": "minecraft:smooth_sandstone"
    },
    "x": 1289,
    "y": 80,
    "z": -444
  },
  {
    "block": {
      "Name": "minecraft:smooth_sandstone"
    },
    "x": 1290,
    "y": 80,
    "z": -444
  },
  {
    "block": {
      "Name": "minecraft:smooth_sandstone"
    },
    "x": 1291,
    "y": 80,
    "z": -444
  },
  {
    "block": {
      "Name": "minecraft:smooth_sandstone"
    },
    "x": 1292,
    "y": 80,
    "z": -444
  },
  {
    "block": {
      "Name": "minecraft:cut_sandstone"
    },
    "x": 1293,
    "y": 80,
    "z": -444
  },
  {
    "block": {
      "Name": "minecraft:cut_sandstone"
    },
    "x": 1285,
    "y": 81,
    "z": -444
  },
  {
    "block": {
      "Name": "minecraft:cut_sandstone"
    },
    "x": 1286,
    "y": 81,
    "z": -444
  },
  {
    "block": {
      "Name": "minecraft:cut_sandstone"
    },
    "x": 1287,
    "y": 81,
    "z": -444
  },
  {
    "block": {
      "Name": "minecraft:cut_sandstone"
    },
    "x": 1288,
    "y": 81,
    "z": -444
  },
  {
    "block": {
      "Name": "minecraft:cut_sandstone"
    },
    "x": 1289,
    "y": 81,
    "z": -444
  },
  {
    "block": {
      "Name": "minecraft:cut_sandstone"
    },
    "x": 1290,
    "y": 81,
    "z": -444
  },
  {
    "block": {
      "Name": "minecraft:cut_sandstone"
    },
    "x": 1291,
    "y": 81,
    "z": -444
  },
  {
    "block": {
      "Name": "minecraft:cut_sandstone"
    },
    "x": 1292,
    "y": 81,
    "z": -444
  },
  {
    "block": {
      "Name": "minecraft:cut_sandstone"
    },
    "x": 1293,
    "y": 81,
    "z": -444
  },
  {
    "block": {
      "Name": "minecraft:cut_sandstone"
    },
    "x": 1285,
    "y": 82,
    "z": -444
  },
  {
    "block": {
      "Name": "minecraft:cut_sandstone"
    },
    "x": 1293,
    "y": 82,
    "z": -444
  }
]