{
  "effects": {
    "mood_sound": {
      "sound": "minecraft:ambient.cave",
      "tick_delay": 6000,
      "block_search_extent": 8,
      "offset": 2.0
    },
    "sky_color": 8103167,
    "foliage_color": 12638463,
    "grass_color": 7600187,
    "fog_color": 12638463,
    "water_color": 4159204,
    "water_fog_color": 329011
  },
  "surface_builder": "nope",
  "carvers": {},
  "features": [],
  "starts": [],
  "spawners": {},
  "spawn_costs": {},
  "player_spawn_friendly": false,
  "precipitation": "none",
  "temperature": 0.0,
  "downfall": 0.0,
  "category": "none",
  "depth": 0.0,
  "scale": 1.0
}