{
	"parent": "block/cube_bottom_top",
    "textures": {
        "side": "tardis:blocks/technology/tungsten_pipes",
        "top":"tardis:blocks/technology/tungsten",
        "bottom":"tardis:blocks/technology/tungsten"
    }
}