{
	"credit": "Made with Blockbench",
	"texture_size": [64, 64],
	"textures": {
		"particle": "tardis:item/chronometer",
		"0": "tardis:item/chronometer"
	},
	"elements": [
		{
			"from": [7.5, 1.5, 7.5],
			"to": [8.5, 2.28125, 8.5],
			"rotation": {"angle": -45, "axis": "y", "origin": [8.00778, 2.00271, 7.94784]},
			"faces": {
				"north": {"uv": [14.25, 7.5, 14.5, 7.5], "texture": "#0"},
				"east": {"uv": [14, 7.5, 14.25, 7.5], "texture": "#0"},
				"south": {"uv": [14.75, 7.5, 15, 7.5], "texture": "#0"},
				"west": {"uv": [14.5, 7.5, 14.75, 7.5], "texture": "#0"},
				"up": {"uv": [14.5, 7.5, 14.25, 7.25], "texture": "#0"},
				"down": {"uv": [14.75, 7.25, 14.5, 7.5], "texture": "#0"}
			}
		},
		{
			"from": [7.75, 1.625, 7.75],
			"to": [8.25, 2.375, 8.25],
			"rotation": {"angle": -45, "axis": "y", "origin": [8.00778, 2.00271, 7.94784]},
			"faces": {
				"north": {"uv": [11.25, 7, 11.25, 7], "texture": "#0"},
				"east": {"uv": [11.25, 7, 11.25, 7], "texture": "#0"},
				"south": {"uv": [11.25, 7, 11.25, 7], "texture": "#0"},
				"west": {"uv": [11.25, 7, 11.25, 7], "texture": "#0"},
				"up": {"uv": [11.25, 7, 11.25, 7], "texture": "#0"},
				"down": {"uv": [11.25, 7, 11.25, 7], "texture": "#0"}
			}
		},
		{
			"from": [7.75, 2, 3.75],
			"to": [8.25, 2.21875, 7.5],
			"rotation": {"angle": -45, "axis": "y", "origin": [8.00778, 2.00271, 7.94784]},
			"faces": {
				"north": {"uv": [14.75, 8, 14.75, 8], "texture": "#0"},
				"east": {"uv": [14, 8, 14.75, 8], "texture": "#0"},
				"south": {"uv": [15.5, 8, 15.5, 8], "texture": "#0"},
				"west": {"uv": [14.75, 8, 15.5, 8], "texture": "#0"},
				"up": {"uv": [14.75, 8, 14.75, 7.25], "texture": "#0"},
				"down": {"uv": [14.75, 7.25, 14.75, 8], "texture": "#0"}
			}
		},
		{
			"from": [2.5, 2, 2.5],
			"to": [13.5, 2, 13.5],
			"faces": {
				"north": {"uv": [2.75, 2.75, 5.5, 2.75], "texture": "#0"},
				"east": {"uv": [0, 2.75, 2.75, 2.75], "texture": "#0"},
				"south": {"uv": [8.25, 2.75, 11, 2.75], "texture": "#0"},
				"west": {"uv": [5.5, 2.75, 8.25, 2.75], "texture": "#0"},
				"up": {"uv": [5.5, 2.75, 2.75, 0], "texture": "#0"},
				"down": {"uv": [8.25, 0, 5.5, 2.75], "texture": "#0"}
			}
		},
		{
			"from": [2.5, 1.5, 2.5],
			"to": [13.5, 1.5, 13.5],
			"faces": {
				"north": {"uv": [2.75, 5.5, 5.5, 5.5], "texture": "#0"},
				"east": {"uv": [0, 5.5, 2.75, 5.5], "texture": "#0"},
				"south": {"uv": [8.25, 5.5, 11, 5.5], "texture": "#0"},
				"west": {"uv": [5.5, 5.5, 8.25, 5.5], "texture": "#0"},
				"up": {"uv": [5.5, 5.5, 2.75, 2.75], "texture": "#0"},
				"down": {"uv": [8.25, 2.75, 5.5, 5.5], "texture": "#0"}
			}
		},
		{
			"from": [2.5, 1.5, 2.5],
			"to": [13.5, 1.5, 13.5],
			"faces": {
				"north": {"uv": [2.75, 8.25, 5.5, 8.25], "texture": "#0"},
				"east": {"uv": [0, 8.25, 2.75, 8.25], "texture": "#0"},
				"south": {"uv": [8.25, 8.25, 11, 8.25], "texture": "#0"},
				"west": {"uv": [5.5, 8.25, 8.25, 8.25], "texture": "#0"},
				"up": {"uv": [5.5, 8.25, 2.75, 5.5], "texture": "#0"},
				"down": {"uv": [8.25, 5.5, 5.5, 8.25], "texture": "#0"}
			}
		},
		{
			"from": [2.5, 1.5, 2.5],
			"to": [13.5, 1.5, 13.5],
			"faces": {
				"north": {"uv": [5.5, 5.5, 8.25, 5.5], "texture": "#0"},
				"east": {"uv": [2.75, 5.5, 5.5, 5.5], "texture": "#0"},
				"south": {"uv": [11, 5.5, 13.75, 5.5], "texture": "#0"},
				"west": {"uv": [8.25, 5.5, 11, 5.5], "texture": "#0"},
				"up": {"uv": [8.25, 5.5, 5.5, 2.75], "texture": "#0"},
				"down": {"uv": [11, 2.75, 8.25, 5.5], "texture": "#0"}
			}
		},
		{
			"from": [2.5, 1.5, 2.5],
			"to": [13.5, 1.5, 13.5],
			"faces": {
				"north": {"uv": [5.5, 8.25, 8.25, 8.25], "texture": "#0"},
				"east": {"uv": [2.75, 8.25, 5.5, 8.25], "texture": "#0"},
				"south": {"uv": [11, 8.25, 13.75, 8.25], "texture": "#0"},
				"west": {"uv": [8.25, 8.25, 11, 8.25], "texture": "#0"},
				"up": {"uv": [8.25, 8.25, 5.5, 5.5], "texture": "#0"},
				"down": {"uv": [11, 5.5, 8.25, 8.25], "texture": "#0"}
			}
		},
		{
			"name": "octagon",
			"from": [7.52521, 1.14, -0.63],
			"to": [8.32521, 1.94, 1.37],
			"faces": {
				"north": {"uv": [15, 5, 15, 5], "texture": "#0"},
				"east": {"uv": [14.5, 5, 15, 5], "texture": "#0"},
				"south": {"uv": [15.5, 5, 15.5, 5], "texture": "#0"},
				"west": {"uv": [15, 5, 15.5, 5], "texture": "#0"},
				"up": {"uv": [15, 5, 15, 4.5], "texture": "#0"},
				"down": {"uv": [15, 4.5, 15, 5], "texture": "#0"}
			}
		},
		{
			"name": "octagon",
			"from": [7.02521, 0.64, -0.13],
			"to": [8.82521, 2.44, 0.62],
			"faces": {
				"north": {"uv": [8.75, 9, 9, 9.25], "texture": "#0"},
				"east": {"uv": [8.75, 9, 8.75, 9.25], "texture": "#0"},
				"south": {"uv": [9, 9, 9.25, 9.25], "texture": "#0"},
				"west": {"uv": [9, 9, 9, 9.25], "texture": "#0"},
				"up": {"uv": [9, 9, 8.75, 9], "texture": "#0"},
				"down": {"uv": [9.25, 9, 9, 9], "texture": "#0"}
			}
		},
		{
			"name": "octagon",
			"from": [5.35235, 0.17975, 1.608],
			"to": [10.64765, 1.049, 14.392],
			"rotation": {"angle": 45, "axis": "y", "origin": [8, 8, 8]},
			"faces": {
				"north": {"uv": [4, 12, 5.25, 12], "texture": "#0"},
				"east": {"uv": [1, 12, 4, 12], "texture": "#0"},
				"south": {"uv": [8.25, 12, 9.5, 12], "texture": "#0"},
				"west": {"uv": [5.25, 12, 8.25, 12], "texture": "#0"},
				"up": {"uv": [5.25, 12, 4, 9], "texture": "#0"},
				"down": {"uv": [6.5, 9, 5.25, 12], "texture": "#0"}
			}
		},
		{
			"name": "octagon",
			"from": [5.35235, 0.17975, 1.608],
			"to": [10.64765, 1.049, 14.392],
			"faces": {
				"north": {"uv": [4, 12, 5.25, 12], "texture": "#0"},
				"east": {"uv": [1, 12, 4, 12], "texture": "#0"},
				"south": {"uv": [8.25, 12, 9.5, 12], "texture": "#0"},
				"west": {"uv": [5.25, 12, 8.25, 12], "texture": "#0"},
				"up": {"uv": [5.25, 12, 4, 9], "texture": "#0"},
				"down": {"uv": [6.5, 9, 5.25, 12], "texture": "#0"}
			}
		},
		{
			"name": "octagon",
			"from": [1.608, 0.17975, 5.35235],
			"to": [14.392, 1.049, 10.64765],
			"rotation": {"angle": 45, "axis": "y", "origin": [8, 8, 8]},
			"faces": {
				"north": {"uv": [2.25, 10.25, 5.25, 10.25], "texture": "#0"},
				"east": {"uv": [1, 10.25, 2.25, 10.25], "texture": "#0"},
				"south": {"uv": [6.5, 10.25, 9.5, 10.25], "texture": "#0"},
				"west": {"uv": [5.25, 10.25, 6.5, 10.25], "texture": "#0"},
				"up": {"uv": [5.25, 10.25, 2.25, 9], "texture": "#0"},
				"down": {"uv": [8.25, 9, 5.25, 10.25], "texture": "#0"}
			}
		},
		{
			"name": "octagon",
			"from": [1.608, 0.17975, 5.35235],
			"to": [14.392, 1.049, 10.64765],
			"faces": {
				"north": {"uv": [2.25, 10.25, 5.25, 10.25], "texture": "#0"},
				"east": {"uv": [1, 10.25, 2.25, 10.25], "texture": "#0"},
				"south": {"uv": [6.5, 10.25, 9.5, 10.25], "texture": "#0"},
				"west": {"uv": [5.25, 10.25, 6.5, 10.25], "texture": "#0"},
				"up": {"uv": [5.25, 10.25, 2.25, 9], "texture": "#0"},
				"down": {"uv": [8.25, 9, 5.25, 10.25], "texture": "#0"}
			}
		},
		{
			"name": "octagon",
			"from": [5.15021, 0.64, 1.12],
			"to": [10.84979, 2.36, 2.84],
			"rotation": {"angle": 45, "axis": "y", "origin": [8, 8, 8]},
			"faces": {
				"north": {"uv": [11, 9, 12.25, 9.25], "texture": "#0"},
				"east": {"uv": [10.75, 9, 11, 9.25], "texture": "#0"},
				"south": {"uv": [12.5, 9, 13.75, 9.25], "texture": "#0"},
				"west": {"uv": [12.25, 9, 12.5, 9.25], "texture": "#0"},
				"up": {"uv": [12.25, 9, 11, 8.75], "texture": "#0"},
				"down": {"uv": [13.5, 8.75, 12.25, 9], "texture": "#0"}
			}
		},
		{
			"name": "octagon",
			"from": [5.15021, 0.64, 1.12],
			"to": [10.84979, 2.36, 2.84],
			"faces": {
				"north": {"uv": [11, 9, 12.25, 9.25], "texture": "#0"},
				"east": {"uv": [10.75, 9, 11, 9.25], "texture": "#0"},
				"south": {"uv": [12.5, 9, 13.75, 9.25], "texture": "#0"},
				"west": {"uv": [12.25, 9, 12.5, 9.25], "texture": "#0"},
				"up": {"uv": [12.25, 9, 11, 8.75], "texture": "#0"},
				"down": {"uv": [13.5, 8.75, 12.25, 9], "texture": "#0"}
			}
		},
		{
			"name": "octagon",
			"from": [5.15021, 0.64, 13.16],
			"to": [10.84979, 2.36, 14.88],
			"rotation": {"angle": 45, "axis": "y", "origin": [8, 8, 8]},
			"faces": {
				"north": {"uv": [11, 9, 12.25, 9.25], "texture": "#0"},
				"east": {"uv": [10.75, 9, 11, 9.25], "texture": "#0"},
				"south": {"uv": [12.5, 9, 13.75, 9.25], "texture": "#0"},
				"west": {"uv": [12.25, 9, 12.5, 9.25], "texture": "#0"},
				"up": {"uv": [12.25, 9, 11, 8.75], "texture": "#0"},
				"down": {"uv": [13.5, 8.75, 12.25, 9], "texture": "#0"}
			}
		},
		{
			"name": "octagon",
			"from": [5.15021, 0.64, 13.16],
			"to": [10.84979, 2.36, 14.88],
			"faces": {
				"north": {"uv": [11, 9, 12.25, 9.25], "texture": "#0"},
				"east": {"uv": [10.75, 9, 11, 9.25], "texture": "#0"},
				"south": {"uv": [12.5, 9, 13.75, 9.25], "texture": "#0"},
				"west": {"uv": [12.25, 9, 12.5, 9.25], "texture": "#0"},
				"up": {"uv": [12.25, 9, 11, 8.75], "texture": "#0"},
				"down": {"uv": [13.5, 8.75, 12.25, 9], "texture": "#0"}
			}
		},
		{
			"name": "octagon",
			"from": [1.12, 0.64, 5.15021],
			"to": [2.84, 2.36, 10.84979],
			"rotation": {"angle": 45, "axis": "y", "origin": [8, 8, 8]},
			"faces": {
				"north": {"uv": [12, 10, 12.25, 10.25], "texture": "#0"},
				"east": {"uv": [10.75, 10, 12, 10.25], "texture": "#0"},
				"south": {"uv": [13.5, 10, 13.75, 10.25], "texture": "#0"},
				"west": {"uv": [12.25, 10, 13.5, 10.25], "texture": "#0"},
				"up": {"uv": [12.25, 10, 12, 8.75], "texture": "#0"},
				"down": {"uv": [12.5, 8.75, 12.25, 10], "texture": "#0"}
			}
		},
		{
			"name": "octagon",
			"from": [1.12, 0.64, 5.15021],
			"to": [2.84, 2.36, 10.84979],
			"faces": {
				"north": {"uv": [12, 10, 12.25, 10.25], "texture": "#0"},
				"east": {"uv": [10.75, 10, 12, 10.25], "texture": "#0"},
				"south": {"uv": [13.5, 10, 13.75, 10.25], "texture": "#0"},
				"west": {"uv": [12.25, 10, 13.5, 10.25], "texture": "#0"},
				"up": {"uv": [12.25, 10, 12, 8.75], "texture": "#0"},
				"down": {"uv": [12.5, 8.75, 12.25, 10], "texture": "#0"}
			}
		},
		{
			"name": "octagon",
			"from": [13.16, 0.64, 5.15021],
			"to": [14.88, 2.36, 10.84979],
			"rotation": {"angle": 45, "axis": "y", "origin": [8, 8, 8]},
			"faces": {
				"north": {"uv": [12, 10, 12.25, 10.25], "texture": "#0"},
				"east": {"uv": [10.75, 10, 12, 10.25], "texture": "#0"},
				"south": {"uv": [13.5, 10, 13.75, 10.25], "texture": "#0"},
				"west": {"uv": [12.25, 10, 13.5, 10.25], "texture": "#0"},
				"up": {"uv": [12.25, 10, 12, 8.75], "texture": "#0"},
				"down": {"uv": [12.5, 8.75, 12.25, 10], "texture": "#0"}
			}
		},
		{
			"name": "octagon",
			"from": [13.16, 0.64, 5.15021],
			"to": [14.88, 2.36, 10.84979],
			"faces": {
				"north": {"uv": [12, 10, 12.25, 10.25], "texture": "#0"},
				"east": {"uv": [10.75, 10, 12, 10.25], "texture": "#0"},
				"south": {"uv": [13.5, 10, 13.75, 10.25], "texture": "#0"},
				"west": {"uv": [12.25, 10, 13.5, 10.25], "texture": "#0"},
				"up": {"uv": [12.25, 10, 12, 8.75], "texture": "#0"},
				"down": {"uv": [12.5, 8.75, 12.25, 10], "texture": "#0"}
			}
		},
		{
			"name": "octagon",
			"from": [5.03622, 1.26065, 0.8448],
			"to": [10.96378, 1.7294, 2.6336],
			"rotation": {"angle": 45, "axis": "y", "origin": [8, 8, 8]},
			"faces": {
				"north": {"uv": [3, 9.5, 4.25, 9.5], "texture": "#0"},
				"east": {"uv": [2.75, 9.5, 3, 9.5], "texture": "#0"},
				"south": {"uv": [4.5, 9.5, 5.75, 9.5], "texture": "#0"},
				"west": {"uv": [4.25, 9.5, 4.5, 9.5], "texture": "#0"},
				"up": {"uv": [4.25, 9.5, 3, 9.25], "texture": "#0"},
				"down": {"uv": [5.5, 9.25, 4.25, 9.5], "texture": "#0"}
			}
		},
		{
			"name": "octagon",
			"from": [5.03622, 1.26065, 0.8448],
			"to": [10.96378, 1.7294, 2.6336],
			"faces": {
				"north": {"uv": [3, 9.5, 4.25, 9.5], "texture": "#0"},
				"east": {"uv": [2.75, 9.5, 3, 9.5], "texture": "#0"},
				"south": {"uv": [4.5, 9.5, 5.75, 9.5], "texture": "#0"},
				"west": {"uv": [4.25, 9.5, 4.5, 9.5], "texture": "#0"},
				"up": {"uv": [4.25, 9.5, 3, 9.25], "texture": "#0"},
				"down": {"uv": [5.5, 9.25, 4.25, 9.5], "texture": "#0"}
			}
		},
		{
			"name": "octagon",
			"from": [5.03622, 1.26065, 13.3664],
			"to": [10.96378, 1.7294, 15.1552],
			"rotation": {"angle": 45, "axis": "y", "origin": [8, 8, 8]},
			"faces": {
				"north": {"uv": [3, 9.5, 4.25, 9.5], "texture": "#0"},
				"east": {"uv": [2.75, 9.5, 3, 9.5], "texture": "#0"},
				"south": {"uv": [4.5, 9.5, 5.75, 9.5], "texture": "#0"},
				"west": {"uv": [4.25, 9.5, 4.5, 9.5], "texture": "#0"},
				"up": {"uv": [4.25, 9.5, 3, 9.25], "texture": "#0"},
				"down": {"uv": [5.5, 9.25, 4.25, 9.5], "texture": "#0"}
			}
		},
		{
			"name": "octagon",
			"from": [5.03622, 1.26065, 13.3664],
			"to": [10.96378, 1.7294, 15.1552],
			"faces": {
				"north": {"uv": [3, 9.5, 4.25, 9.5], "texture": "#0"},
				"east": {"uv": [2.75, 9.5, 3, 9.5], "texture": "#0"},
				"south": {"uv": [4.5, 9.5, 5.75, 9.5], "texture": "#0"},
				"west": {"uv": [4.25, 9.5, 4.5, 9.5], "texture": "#0"},
				"up": {"uv": [4.25, 9.5, 3, 9.25], "texture": "#0"},
				"down": {"uv": [5.5, 9.25, 4.25, 9.5], "texture": "#0"}
			}
		},
		{
			"name": "octagon",
			"from": [0.8448, 1.26065, 5.03622],
			"to": [2.6336, 1.7294, 10.96378],
			"rotation": {"angle": 45, "axis": "y", "origin": [8, 8, 8]},
			"faces": {
				"north": {"uv": [4, 10.5, 4.25, 10.5], "texture": "#0"},
				"east": {"uv": [2.75, 10.5, 4, 10.5], "texture": "#0"},
				"south": {"uv": [5.5, 10.5, 5.75, 10.5], "texture": "#0"},
				"west": {"uv": [4.25, 10.5, 5.5, 10.5], "texture": "#0"},
				"up": {"uv": [4.25, 10.5, 4, 9.25], "texture": "#0"},
				"down": {"uv": [4.5, 9.25, 4.25, 10.5], "texture": "#0"}
			}
		},
		{
			"name": "octagon",
			"from": [0.8448, 1.26065, 5.03622],
			"to": [2.6336, 1.7294, 10.96378],
			"faces": {
				"north": {"uv": [4, 10.5, 4.25, 10.5], "texture": "#0"},
				"east": {"uv": [2.75, 10.5, 4, 10.5], "texture": "#0"},
				"south": {"uv": [5.5, 10.5, 5.75, 10.5], "texture": "#0"},
				"west": {"uv": [4.25, 10.5, 5.5, 10.5], "texture": "#0"},
				"up": {"uv": [4.25, 10.5, 4, 9.25], "texture": "#0"},
				"down": {"uv": [4.5, 9.25, 4.25, 10.5], "texture": "#0"}
			}
		},
		{
			"name": "octagon",
			"from": [13.3664, 1.26065, 5.03622],
			"to": [15.1552, 1.7294, 10.96378],
			"rotation": {"angle": 45, "axis": "y", "origin": [8, 8, 8]},
			"faces": {
				"north": {"uv": [4, 10.5, 4.25, 10.5], "texture": "#0"},
				"east": {"uv": [2.75, 10.5, 4, 10.5], "texture": "#0"},
				"south": {"uv": [5.5, 10.5, 5.75, 10.5], "texture": "#0"},
				"west": {"uv": [4.25, 10.5, 5.5, 10.5], "texture": "#0"},
				"up": {"uv": [4.25, 10.5, 4, 9.25], "texture": "#0"},
				"down": {"uv": [4.5, 9.25, 4.25, 10.5], "texture": "#0"}
			}
		},
		{
			"name": "octagon",
			"from": [13.3664, 1.26065, 5.03622],
			"to": [15.1552, 1.7294, 10.96378],
			"faces": {
				"north": {"uv": [4, 10.5, 4.25, 10.5], "texture": "#0"},
				"east": {"uv": [2.75, 10.5, 4, 10.5], "texture": "#0"},
				"south": {"uv": [5.5, 10.5, 5.75, 10.5], "texture": "#0"},
				"west": {"uv": [4.25, 10.5, 5.5, 10.5], "texture": "#0"},
				"up": {"uv": [4.25, 10.5, 4, 9.25], "texture": "#0"},
				"down": {"uv": [4.5, 9.25, 4.25, 10.5], "texture": "#0"}
			}
		},
		{
			"name": "octagon",
			"from": [8.90021, 2.39, 1.62],
			"to": [9.59979, 2.61, 2.34],
			"rotation": {"angle": 45, "axis": "y", "origin": [8, 8, 8]},
			"faces": {
				"north": {"uv": [0.5, 8.75, 0.5, 8.75], "texture": "#0"},
				"east": {"uv": [0.5, 8.75, 0.5, 8.75], "texture": "#0"},
				"south": {"uv": [0.5, 8.75, 0.5, 8.75], "texture": "#0"},
				"west": {"uv": [0.5, 8.75, 0.5, 8.75], "texture": "#0"},
				"up": {"uv": [0.5, 8.75, 0.5, 8.75], "texture": "#0"},
				"down": {"uv": [0.5, 8.75, 0.5, 8.75], "texture": "#0"}
			}
		},
		{
			"name": "octagon",
			"from": [6.40021, 2.39, 1.62],
			"to": [7.09979, 2.61, 2.34],
			"rotation": {"angle": 45, "axis": "y", "origin": [8, 8, 8]},
			"faces": {
				"north": {"uv": [0.5, 8.75, 0.5, 8.75], "texture": "#0"},
				"east": {"uv": [0.5, 8.75, 0.5, 8.75], "texture": "#0"},
				"south": {"uv": [0.5, 8.75, 0.5, 8.75], "texture": "#0"},
				"west": {"uv": [0.5, 8.75, 0.5, 8.75], "texture": "#0"},
				"up": {"uv": [0.5, 8.75, 0.5, 8.75], "texture": "#0"},
				"down": {"uv": [0.5, 8.75, 0.5, 8.75], "texture": "#0"}
			}
		},
		{
			"name": "octagon",
			"from": [1.62, 2.39, 6.40021],
			"to": [2.34, 2.61, 7.09979],
			"faces": {
				"north": {"uv": [0.5, 8.75, 0.5, 8.75], "texture": "#0"},
				"east": {"uv": [0.5, 8.75, 0.5, 8.75], "texture": "#0"},
				"south": {"uv": [0.5, 8.75, 0.5, 8.75], "texture": "#0"},
				"west": {"uv": [0.5, 8.75, 0.5, 8.75], "texture": "#0"},
				"up": {"uv": [0.5, 8.75, 0.5, 8.75], "texture": "#0"},
				"down": {"uv": [0.5, 8.75, 0.5, 8.75], "texture": "#0"}
			}
		},
		{
			"name": "octagon",
			"from": [1.62, 2.39, 9.15021],
			"to": [2.34, 2.61, 9.84979],
			"faces": {
				"north": {"uv": [0.5, 8.75, 0.5, 8.75], "texture": "#0"},
				"east": {"uv": [0.5, 8.75, 0.5, 8.75], "texture": "#0"},
				"south": {"uv": [0.5, 8.75, 0.5, 8.75], "texture": "#0"},
				"west": {"uv": [0.5, 8.75, 0.5, 8.75], "texture": "#0"},
				"up": {"uv": [0.5, 8.75, 0.5, 8.75], "texture": "#0"},
				"down": {"uv": [0.5, 8.75, 0.5, 8.75], "texture": "#0"}
			}
		},
		{
			"name": "octagon",
			"from": [1.62, 2.39, 8.90021],
			"to": [2.34, 2.61, 9.59979],
			"rotation": {"angle": 45, "axis": "y", "origin": [8, 8, 8]},
			"faces": {
				"north": {"uv": [0.5, 8.75, 0.5, 8.75], "texture": "#0"},
				"east": {"uv": [0.5, 8.75, 0.5, 8.75], "texture": "#0"},
				"south": {"uv": [0.5, 8.75, 0.5, 8.75], "texture": "#0"},
				"west": {"uv": [0.5, 8.75, 0.5, 8.75], "texture": "#0"},
				"up": {"uv": [0.5, 8.75, 0.5, 8.75], "texture": "#0"},
				"down": {"uv": [0.5, 8.75, 0.5, 8.75], "texture": "#0"}
			}
		},
		{
			"name": "octagon",
			"from": [1.62, 2.39, 6.40021],
			"to": [2.34, 2.61, 7.09979],
			"rotation": {"angle": 45, "axis": "y", "origin": [8, 8, 8]},
			"faces": {
				"north": {"uv": [0.5, 8.75, 0.5, 8.75], "texture": "#0"},
				"east": {"uv": [0.5, 8.75, 0.5, 8.75], "texture": "#0"},
				"south": {"uv": [0.5, 8.75, 0.5, 8.75], "texture": "#0"},
				"west": {"uv": [0.5, 8.75, 0.5, 8.75], "texture": "#0"},
				"up": {"uv": [0.5, 8.75, 0.5, 8.75], "texture": "#0"},
				"down": {"uv": [0.5, 8.75, 0.5, 8.75], "texture": "#0"}
			}
		},
		{
			"name": "octagon",
			"from": [6.40021, 2.39, 13.66],
			"to": [7.09979, 2.61, 14.38],
			"faces": {
				"north": {"uv": [0.5, 8.75, 0.5, 8.75], "texture": "#0"},
				"east": {"uv": [0.5, 8.75, 0.5, 8.75], "texture": "#0"},
				"south": {"uv": [0.5, 8.75, 0.5, 8.75], "texture": "#0"},
				"west": {"uv": [0.5, 8.75, 0.5, 8.75], "texture": "#0"},
				"up": {"uv": [0.5, 8.75, 0.5, 8.75], "texture": "#0"},
				"down": {"uv": [0.5, 8.75, 0.5, 8.75], "texture": "#0"}
			}
		},
		{
			"name": "octagon",
			"from": [8.90021, 2.39, 13.66],
			"to": [9.59979, 2.61, 14.38],
			"faces": {
				"north": {"uv": [0.5, 8.75, 0.5, 8.75], "texture": "#0"},
				"east": {"uv": [0.5, 8.75, 0.5, 8.75], "texture": "#0"},
				"south": {"uv": [0.5, 8.75, 0.5, 8.75], "texture": "#0"},
				"west": {"uv": [0.5, 8.75, 0.5, 8.75], "texture": "#0"},
				"up": {"uv": [0.5, 8.75, 0.5, 8.75], "texture": "#0"},
				"down": {"uv": [0.5, 8.75, 0.5, 8.75], "texture": "#0"}
			}
		},
		{
			"name": "octagon",
			"from": [8.90021, 2.39, 13.66],
			"to": [9.59979, 2.61, 14.38],
			"rotation": {"angle": 45, "axis": "y", "origin": [8, 8, 8]},
			"faces": {
				"north": {"uv": [0.5, 8.75, 0.5, 8.75], "texture": "#0"},
				"east": {"uv": [0.5, 8.75, 0.5, 8.75], "texture": "#0"},
				"south": {"uv": [0.5, 8.75, 0.5, 8.75], "texture": "#0"},
				"west": {"uv": [0.5, 8.75, 0.5, 8.75], "texture": "#0"},
				"up": {"uv": [0.5, 8.75, 0.5, 8.75], "texture": "#0"},
				"down": {"uv": [0.5, 8.75, 0.5, 8.75], "texture": "#0"}
			}
		},
		{
			"name": "octagon",
			"from": [6.40021, 2.39, 13.66],
			"to": [7.09979, 2.61, 14.38],
			"rotation": {"angle": 45, "axis": "y", "origin": [8, 8, 8]},
			"faces": {
				"north": {"uv": [0.5, 8.75, 0.5, 8.75], "texture": "#0"},
				"east": {"uv": [0.5, 8.75, 0.5, 8.75], "texture": "#0"},
				"south": {"uv": [0.5, 8.75, 0.5, 8.75], "texture": "#0"},
				"west": {"uv": [0.5, 8.75, 0.5, 8.75], "texture": "#0"},
				"up": {"uv": [0.5, 8.75, 0.5, 8.75], "texture": "#0"},
				"down": {"uv": [0.5, 8.75, 0.5, 8.75], "texture": "#0"}
			}
		},
		{
			"name": "octagon",
			"from": [13.66, 2.39, 6.40021],
			"to": [14.38, 2.61, 7.09979],
			"faces": {
				"north": {"uv": [0.5, 8.75, 0.5, 8.75], "texture": "#0"},
				"east": {"uv": [0.5, 8.75, 0.5, 8.75], "texture": "#0"},
				"south": {"uv": [0.5, 8.75, 0.5, 8.75], "texture": "#0"},
				"west": {"uv": [0.5, 8.75, 0.5, 8.75], "texture": "#0"},
				"up": {"uv": [0.5, 8.75, 0.5, 8.75], "texture": "#0"},
				"down": {"uv": [0.5, 8.75, 0.5, 8.75], "texture": "#0"}
			}
		},
		{
			"name": "octagon",
			"from": [13.66, 2.39, 9.15021],
			"to": [14.38, 2.61, 9.84979],
			"faces": {
				"north": {"uv": [0.5, 8.75, 0.5, 8.75], "texture": "#0"},
				"east": {"uv": [0.5, 8.75, 0.5, 8.75], "texture": "#0"},
				"south": {"uv": [0.5, 8.75, 0.5, 8.75], "texture": "#0"},
				"west": {"uv": [0.5, 8.75, 0.5, 8.75], "texture": "#0"},
				"up": {"uv": [0.5, 8.75, 0.5, 8.75], "texture": "#0"},
				"down": {"uv": [0.5, 8.75, 0.5, 8.75], "texture": "#0"}
			}
		},
		{
			"name": "octagon",
			"from": [13.66, 2.39, 8.90021],
			"to": [14.38, 2.61, 9.59979],
			"rotation": {"angle": 45, "axis": "y", "origin": [8, 8, 8]},
			"faces": {
				"north": {"uv": [0.5, 8.75, 0.5, 8.75], "texture": "#0"},
				"east": {"uv": [0.5, 8.75, 0.5, 8.75], "texture": "#0"},
				"south": {"uv": [0.5, 8.75, 0.5, 8.75], "texture": "#0"},
				"west": {"uv": [0.5, 8.75, 0.5, 8.75], "texture": "#0"},
				"up": {"uv": [0.5, 8.75, 0.5, 8.75], "texture": "#0"},
				"down": {"uv": [0.5, 8.75, 0.5, 8.75], "texture": "#0"}
			}
		},
		{
			"name": "octagon",
			"from": [13.66, 2.39, 6.40021],
			"to": [14.38, 2.61, 7.09979],
			"rotation": {"angle": 45, "axis": "y", "origin": [8, 8, 8]},
			"faces": {
				"north": {"uv": [0.5, 8.75, 0.5, 8.75], "texture": "#0"},
				"east": {"uv": [0.5, 8.75, 0.5, 8.75], "texture": "#0"},
				"south": {"uv": [0.5, 8.75, 0.5, 8.75], "texture": "#0"},
				"west": {"uv": [0.5, 8.75, 0.5, 8.75], "texture": "#0"},
				"up": {"uv": [0.5, 8.75, 0.5, 8.75], "texture": "#0"},
				"down": {"uv": [0.5, 8.75, 0.5, 8.75], "texture": "#0"}
			}
		},
		{
			"name": "octagon",
			"from": [6.40021, 2.39, 1.62],
			"to": [7.09979, 2.61, 2.34],
			"faces": {
				"north": {"uv": [0.5, 8.75, 0.5, 8.75], "texture": "#0"},
				"east": {"uv": [0.5, 8.75, 0.5, 8.75], "texture": "#0"},
				"south": {"uv": [0.5, 8.75, 0.5, 8.75], "texture": "#0"},
				"west": {"uv": [0.5, 8.75, 0.5, 8.75], "texture": "#0"},
				"up": {"uv": [0.5, 8.75, 0.5, 8.75], "texture": "#0"},
				"down": {"uv": [0.5, 8.75, 0.5, 8.75], "texture": "#0"}
			}
		},
		{
			"name": "octagon",
			"from": [8.90021, 2.39, 1.62],
			"to": [9.59979, 2.61, 2.34],
			"faces": {
				"north": {"uv": [0.5, 8.75, 0.5, 8.75], "texture": "#0"},
				"east": {"uv": [0.5, 8.75, 0.5, 8.75], "texture": "#0"},
				"south": {"uv": [0.5, 8.75, 0.5, 8.75], "texture": "#0"},
				"west": {"uv": [0.5, 8.75, 0.5, 8.75], "texture": "#0"},
				"up": {"uv": [0.5, 8.75, 0.5, 8.75], "texture": "#0"},
				"down": {"uv": [0.5, 8.75, 0.5, 8.75], "texture": "#0"}
			}
		}
	],
	"display": {
		"thirdperson_righthand": {
			"rotation": [56, 0, 0],
			"translation": [0, 1.5, 0.25],
			"scale": [0.25, 0.25, 0.25]
		},
		"thirdperson_lefthand": {
			"rotation": [56, 0, 0],
			"translation": [0, 1.5, 0.25],
			"scale": [0.25, 0.25, 0.25]
		},
		"firstperson_righthand": {
			"rotation": [76, -5, 40],
			"translation": [2.25, 2.5, 0],
			"scale": [0.5, 0.5, 0.5]
		},
		"firstperson_lefthand": {
			"rotation": [76, -5, 40],
			"translation": [1.5, 2.5, 0],
			"scale": [0.5, 0.5, 0.5]
		},
		"ground": {
			"translation": [0, 2, 0],
			"scale": [0.5, 0.5, 0.5]
		},
		"gui": {
			"rotation": [68, -25, 25],
			"translation": [-2, 2.25, 0]
		},
		"head": {
			"rotation": [-90, -180, 0],
			"translation": [0, 4, -8.25],
			"scale": [0.25, 0.25, 0.25]
		},
		"fixed": {
			"rotation": [90, 0, -180],
			"translation": [0, 0, -6.75]
		}
	},
	"groups": [
		{
			"name": "face",
			"origin": [8, 8, 8],
			"children": [
				{
					"name": "needle",
					"origin": [8, 8, 8],
					"children": [0, 1, 2]
				},
				{
					"name": "top_face",
					"origin": [8, 8, 8],
					"children": [3]
				},
				{
					"name": "sky_face_noon",
					"origin": [8, 8, 8],
					"children": [4]
				},
				{
					"name": "sky_face_dusk",
					"origin": [8, 8, 8],
					"children": [5]
				},
				{
					"name": "sky_face_night",
					"origin": [8, 8, 8],
					"children": [6]
				},
				{
					"name": "sky_face_dawn",
					"origin": [8, 8, 8],
					"children": [7]
				}
			]
		},
		{
			"name": "post",
			"origin": [8, 8, 8],
			"children": [8, 9]
		},
		{
			"name": "back",
			"origin": [8, 8, 8],
			"children": [10, 11, 12, 13]
		},
		{
			"name": "frame",
			"origin": [8, 8, 8],
			"children": [14, 15, 16, 17, 18, 19, 20, 21]
		},
		{
			"name": "ridge",
			"origin": [8, 8, 8],
			"children": [22, 23, 24, 25, 26, 27, 28, 29]
		},
		{
			"name": "bolts",
			"origin": [8, 8, 8],
			"children": [30, 31, 32, 33, 34, 35, 36, 37, 38, 39, 40, 41, 42, 43, 44, 45]
		}
	]
}