	{
	"type":"minecraft:crafting_shaped",
	"pattern":[
		"CCG",
		"CXG",
		"CCG"
	],
	"key":{
		"C":{
		    "item":"tardis:circuit_paste"
		},
		"G":{
			"item":"minecraft:gold_nugget"
		},
		"X":{
			"item":"tardis:xion_crystal"
		}
	},
	"result":{
		"item":"tardis:circuits"
	}
}