{
  "type": "minecraft:crafting_shaped",
  "pattern": [
    "bib",
    "xgx",
    "ici"
  ],
  "key": {
    "b": {
      "item": "minecraft:iron_bars"
    },
    "i":{
    	"item":"minecraft:iron_ingot"
    },
    "x":{
    	"item":"tardis:xion_crystal"
    },
    "g":{
    	"item":"minecraft:glass"
    },
    "c":{
    	"item":"tardis:circuits"
    }
  },
  "result": {
    "item": "tardis:quantiscope_iron"
  }
}