{
	"lines":[
	"Administrative Functions"
	,""
	," Every timeship has a set of protocols that are determined by the loyalty."
	,"These protocols will be locked to the owner of the Timeship if the Timeships's loyalty value is over 50"
	]
}