{
	"credit": "Made with Blockbench",
	"texture_size": [32, 32],
	"textures": {
		"1": "tardis:item/sonics/mk1_activator"
	},
	"elements": [
		{
			"name": "octagon",
			"from": [7.66638, 2.23958, 4.70939],
			"to": [8.33362, 2.50667, 5.34186],
			"rotation": {"angle": 0, "axis": "y", "origin": [8, 8.14939, 6.26912]},
			"faces": {
				"north": {"uv": [0.5, 8, 1, 8.5], "texture": "#1"},
				"east": {"uv": [1, 8, 1.5, 8.5], "texture": "#1"},
				"south": {"uv": [2, 8, 2.5, 8.5], "texture": "#1"},
				"west": {"uv": [2.5, 8, 3, 8.5], "texture": "#1"},
				"up": {"uv": [4.5, 8.5, 4, 8], "texture": "#1"},
				"down": {"uv": [6.5, 8, 6, 8.5], "texture": "#1"}
			}
		},
		{
			"name": "octagon",
			"from": [3.39091, 2.58494, 0.8404],
			"to": [4.00553, 4.06877, 3.46085],
			"rotation": {"angle": 45, "axis": "z", "origin": [8, 7.62863, 5.94686]},
			"faces": {
				"north": {"uv": [6.5, 8, 7, 8.5], "texture": "#1"},
				"east": {"uv": [2, 1, 3.5, 1.5], "texture": "#1"},
				"south": {"uv": [7, 8, 7.5, 8.5], "texture": "#1"},
				"west": {"uv": [2, 1.5, 3.5, 2], "texture": "#1"},
				"up": {"uv": [0.5, 4.5, 0, 3], "texture": "#1"},
				"down": {"uv": [1, 3, 0.5, 4.5], "texture": "#1"}
			}
		},
		{
			"name": "octagon",
			"from": [7.69269, 0.80309, 0.8404],
			"to": [8.30731, 2.28691, 3.46085],
			"rotation": {"angle": 0, "axis": "y", "origin": [8, 7.62863, 5.94686]},
			"faces": {
				"north": {"uv": [8, 8, 8.5, 8.5], "texture": "#1"},
				"east": {"uv": [1, 3, 2.5, 3.5], "texture": "#1"},
				"south": {"uv": [8, 2.5, 8.5, 3], "texture": "#1"},
				"west": {"uv": [2.5, 3, 4, 3.5], "texture": "#1"},
				"up": {"uv": [1.5, 5, 1, 3.5], "texture": "#1"},
				"down": {"uv": [2, 3.5, 1.5, 5], "texture": "#1"}
			}
		},
		{
			"name": "octagon",
			"from": [2.95631, 3.01955, 0.8404],
			"to": [4.44013, 3.63416, 3.46085],
			"rotation": {"angle": 45, "axis": "z", "origin": [8, 7.62863, 5.94686]},
			"faces": {
				"north": {"uv": [8, 3, 8.5, 3.5], "texture": "#1"},
				"east": {"uv": [3, 0, 4.5, 0.5], "texture": "#1"},
				"south": {"uv": [8, 3.5, 8.5, 4], "texture": "#1"},
				"west": {"uv": [3, 0.5, 4.5, 1], "texture": "#1"},
				"up": {"uv": [2.5, 5, 2, 3.5], "texture": "#1"},
				"down": {"uv": [3, 3.5, 2.5, 5], "texture": "#1"}
			}
		},
		{
			"name": "octagon",
			"from": [7.25809, 1.23769, 0.8404],
			"to": [8.74191, 1.85231, 3.46085],
			"rotation": {"angle": 0, "axis": "y", "origin": [8, 7.62863, 5.94686]},
			"faces": {
				"north": {"uv": [8, 4, 8.5, 4.5], "texture": "#1"},
				"east": {"uv": [3, 2, 4.5, 2.5], "texture": "#1"},
				"south": {"uv": [8, 4.5, 8.5, 5], "texture": "#1"},
				"west": {"uv": [3, 2.5, 4.5, 3], "texture": "#1"},
				"up": {"uv": [3.5, 5, 3, 3.5], "texture": "#1"},
				"down": {"uv": [4, 3.5, 3.5, 5], "texture": "#1"}
			}
		},
		{
			"name": "octagon",
			"from": [2.56128, 2.77213, 3.41831],
			"to": [3.28653, 4.52304, 4.44544],
			"rotation": {"angle": 45, "axis": "z", "origin": [8, 8.72369, 6.38269]},
			"faces": {
				"north": {"uv": [3.5, 1, 4, 2], "texture": "#1"},
				"east": {"uv": [4, 4, 4.5, 5], "texture": "#1"},
				"south": {"uv": [4, 1, 4.5, 2], "texture": "#1"},
				"west": {"uv": [4, 3, 4.5, 4], "texture": "#1"},
				"up": {"uv": [8.5, 6.5, 8, 6], "texture": "#1"},
				"down": {"uv": [8.5, 6.5, 8, 7], "texture": "#1"}
			}
		},
		{
			"name": "octagon",
			"from": [7.63737, 0.66954, 3.41831],
			"to": [8.36263, 2.42046, 4.44544],
			"rotation": {"angle": 0, "axis": "y", "origin": [8, 8.72369, 6.38269]},
			"faces": {
				"north": {"uv": [0, 4.5, 0.5, 5.5], "texture": "#1"},
				"east": {"uv": [0.5, 4.5, 1, 5.5], "texture": "#1"},
				"south": {"uv": [4.5, 4.5, 5, 5.5], "texture": "#1"},
				"west": {"uv": [4.5, 0, 5, 1], "texture": "#1"},
				"up": {"uv": [8.5, 8, 8, 7.5], "texture": "#1"},
				"down": {"uv": [0.5, 8.5, 0, 9], "texture": "#1"}
			}
		},
		{
			"name": "octagon",
			"from": [2.04845, 3.28496, 3.41831],
			"to": [3.79936, 4.01021, 4.44544],
			"rotation": {"angle": 45, "axis": "z", "origin": [8, 8.72369, 6.38269]},
			"faces": {
				"north": {"uv": [4.5, 1, 5.5, 1.5], "texture": "#1"},
				"east": {"uv": [0.5, 8.5, 1, 9], "texture": "#1"},
				"south": {"uv": [4.5, 1.5, 5.5, 2], "texture": "#1"},
				"west": {"uv": [1, 8.5, 1.5, 9], "texture": "#1"},
				"up": {"uv": [5.5, 2.5, 4.5, 2], "texture": "#1"},
				"down": {"uv": [5.5, 2.5, 4.5, 3], "texture": "#1"}
			}
		},
		{
			"name": "octagon",
			"from": [7.12454, 1.18237, 3.41831],
			"to": [8.87546, 1.90763, 4.44544],
			"rotation": {"angle": 0, "axis": "y", "origin": [8, 8.72369, 6.38269]},
			"faces": {
				"north": {"uv": [4.5, 3, 5.5, 3.5], "texture": "#1"},
				"east": {"uv": [1.5, 8.5, 2, 9], "texture": "#1"},
				"south": {"uv": [4.5, 3.5, 5.5, 4], "texture": "#1"},
				"west": {"uv": [2, 8.5, 2.5, 9], "texture": "#1"},
				"up": {"uv": [5.5, 4.5, 4.5, 4], "texture": "#1"},
				"down": {"uv": [2, 5, 1, 5.5], "texture": "#1"}
			}
		},
		{
			"name": "octagon",
			"from": [2.99637, 2.67396, 4.45939],
			"to": [3.6636, 4.2848, 6.90436],
			"rotation": {"angle": 45, "axis": "z", "origin": [8, 8.14939, 6.26912]},
			"faces": {
				"north": {"uv": [2, 5, 2.5, 6], "texture": "#1"},
				"east": {"uv": [0, 0, 1, 1], "texture": "#1"},
				"south": {"uv": [2.5, 5, 3, 6], "texture": "#1"},
				"west": {"uv": [0, 1, 1, 2], "texture": "#1"},
				"up": {"uv": [3.5, 6, 3, 5], "texture": "#1"},
				"down": {"uv": [4, 5, 3.5, 6], "texture": "#1"}
			}
		},
		{
			"name": "octagon",
			"from": [7.66638, 0.73958, 4.45939],
			"to": [8.33362, 2.35042, 6.90436],
			"rotation": {"angle": 0, "axis": "y", "origin": [8, 8.14939, 6.26912]},
			"faces": {
				"north": {"uv": [4, 5, 4.5, 6], "texture": "#1"},
				"east": {"uv": [1, 1, 2, 2], "texture": "#1"},
				"south": {"uv": [5, 5, 5.5, 6], "texture": "#1"},
				"west": {"uv": [1, 0, 2, 1], "texture": "#1"},
				"up": {"uv": [5.5, 1, 5, 0], "texture": "#1"},
				"down": {"uv": [0.5, 5.5, 0, 6.5], "texture": "#1"}
			}
		},
		{
			"name": "octagon",
			"from": [2.52457, 3.14577, 4.45939],
			"to": [4.13541, 3.813, 6.90436],
			"rotation": {"angle": 45, "axis": "z", "origin": [8, 8.14939, 6.26912]},
			"faces": {
				"north": {"uv": [5, 4.5, 6, 5], "texture": "#1"},
				"east": {"uv": [0.5, 5.5, 1.5, 6], "texture": "#1"},
				"south": {"uv": [5.5, 5.5, 6.5, 6], "texture": "#1"},
				"west": {"uv": [5.5, 0, 6.5, 0.5], "texture": "#1"},
				"up": {"uv": [1, 3, 0, 2], "texture": "#1"},
				"down": {"uv": [2, 2, 1, 3], "texture": "#1"}
			}
		},
		{
			"name": "octagon",
			"from": [7.19458, 1.21138, 4.45939],
			"to": [8.80542, 1.87862, 6.90436],
			"rotation": {"angle": 0, "axis": "y", "origin": [8, 8.14939, 6.26912]},
			"faces": {
				"north": {"uv": [5.5, 0.5, 6.5, 1], "texture": "#1"},
				"east": {"uv": [5.5, 1, 6.5, 1.5], "texture": "#1"},
				"south": {"uv": [5.5, 1.5, 6.5, 2], "texture": "#1"},
				"west": {"uv": [5.5, 2, 6.5, 2.5], "texture": "#1"},
				"up": {"uv": [3, 3, 2, 2], "texture": "#1"},
				"down": {"uv": [3, 0, 2, 1], "texture": "#1"}
			}
		},
		{
			"name": "octagon",
			"from": [2.0071, 2.89717, 6.53981],
			"to": [2.80625, 4.82649, 6.76144],
			"rotation": {"angle": 45, "axis": "z", "origin": [8, 9.45516, 7.05531]},
			"faces": {
				"north": {"uv": [1.5, 5.5, 2, 6.5], "texture": "#1"},
				"east": {"uv": [4.5, 5.5, 5, 6.5], "texture": "#1"},
				"south": {"uv": [5.5, 2.5, 6, 3.5], "texture": "#1"},
				"west": {"uv": [5.5, 3.5, 6, 4.5], "texture": "#1"},
				"up": {"uv": [3, 9, 2.5, 8.5], "texture": "#1"},
				"down": {"uv": [3.5, 8.5, 3, 9], "texture": "#1"}
			}
		},
		{
			"name": "octagon",
			"from": [7.60042, 0.58034, 6.53981],
			"to": [8.39958, 2.50966, 6.76144],
			"rotation": {"angle": 0, "axis": "y", "origin": [8, 9.45516, 7.05531]},
			"faces": {
				"north": {"uv": [0.5, 6, 1, 7], "texture": "#1"},
				"east": {"uv": [1, 6, 1.5, 7], "texture": "#1"},
				"south": {"uv": [2, 6, 2.5, 7], "texture": "#1"},
				"west": {"uv": [2.5, 6, 3, 7], "texture": "#1"},
				"up": {"uv": [4, 9, 3.5, 8.5], "texture": "#1"},
				"down": {"uv": [4.5, 8.5, 4, 9], "texture": "#1"}
			}
		},
		{
			"name": "octagon",
			"from": [1.44201, 3.46226, 6.53981],
			"to": [3.37133, 4.26141, 6.76144],
			"rotation": {"angle": 45, "axis": "z", "origin": [8, 9.45516, 7.05531]},
			"faces": {
				"north": {"uv": [5.5, 5, 6.5, 5.5], "texture": "#1"},
				"east": {"uv": [4.5, 8.5, 5, 9], "texture": "#1"},
				"south": {"uv": [3, 6, 4, 6.5], "texture": "#1"},
				"west": {"uv": [5, 8.5, 5.5, 9], "texture": "#1"},
				"up": {"uv": [6, 6.5, 5, 6], "texture": "#1"},
				"down": {"uv": [7, 6, 6, 6.5], "texture": "#1"}
			}
		},
		{
			"name": "octagon",
			"from": [7.03534, 1.14542, 6.53981],
			"to": [8.96466, 1.94458, 6.76144],
			"rotation": {"angle": 0, "axis": "y", "origin": [8, 9.45516, 7.05531]},
			"faces": {
				"north": {"uv": [6, 2.5, 7, 3], "texture": "#1"},
				"east": {"uv": [5.5, 8.5, 6, 9], "texture": "#1"},
				"south": {"uv": [6, 3, 7, 3.5], "texture": "#1"},
				"west": {"uv": [6, 8.5, 6.5, 9], "texture": "#1"},
				"up": {"uv": [7, 4, 6, 3.5], "texture": "#1"},
				"down": {"uv": [7, 4, 6, 4.5], "texture": "#1"}
			}
		},
		{
			"name": "octagon",
			"from": [2.0071, 2.89717, 6.25856],
			"to": [2.80625, 4.82649, 6.48019],
			"rotation": {"angle": 45, "axis": "z", "origin": [8, 9.45516, 7.05531]},
			"faces": {
				"north": {"uv": [4, 6, 4.5, 7], "texture": "#1"},
				"east": {"uv": [0, 6.5, 0.5, 7.5], "texture": "#1"},
				"south": {"uv": [1.5, 6.5, 2, 7.5], "texture": "#1"},
				"west": {"uv": [3, 6.5, 3.5, 7.5], "texture": "#1"},
				"up": {"uv": [7, 9, 6.5, 8.5], "texture": "#1"},
				"down": {"uv": [7.5, 8.5, 7, 9], "texture": "#1"}
			}
		},
		{
			"name": "octagon",
			"from": [7.60042, 0.58034, 6.25856],
			"to": [8.39958, 2.50966, 6.48019],
			"rotation": {"angle": 0, "axis": "y", "origin": [8, 9.45516, 7.05531]},
			"faces": {
				"north": {"uv": [3.5, 6.5, 4, 7.5], "texture": "#1"},
				"east": {"uv": [4.5, 6.5, 5, 7.5], "texture": "#1"},
				"south": {"uv": [5, 6.5, 5.5, 7.5], "texture": "#1"},
				"west": {"uv": [5.5, 6.5, 6, 7.5], "texture": "#1"},
				"up": {"uv": [8, 9, 7.5, 8.5], "texture": "#1"},
				"down": {"uv": [8.5, 8.5, 8, 9], "texture": "#1"}
			}
		},
		{
			"name": "octagon",
			"from": [1.44201, 3.46226, 6.25856],
			"to": [3.37133, 4.26141, 6.48019],
			"rotation": {"angle": 45, "axis": "z", "origin": [8, 9.45516, 7.05531]},
			"faces": {
				"north": {"uv": [6, 4.5, 7, 5], "texture": "#1"},
				"east": {"uv": [8.5, 8.5, 9, 9], "texture": "#1"},
				"south": {"uv": [6, 6.5, 7, 7], "texture": "#1"},
				"west": {"uv": [8.5, 0, 9, 0.5], "texture": "#1"},
				"up": {"uv": [7.5, 0.5, 6.5, 0], "texture": "#1"},
				"down": {"uv": [7.5, 0.5, 6.5, 1], "texture": "#1"}
			}
		},
		{
			"name": "octagon",
			"from": [7.03534, 1.14542, 6.25856],
			"to": [8.96466, 1.94458, 6.48019],
			"rotation": {"angle": 0, "axis": "y", "origin": [8, 9.45516, 7.05531]},
			"faces": {
				"north": {"uv": [6.5, 1, 7.5, 1.5], "texture": "#1"},
				"east": {"uv": [8.5, 0.5, 9, 1], "texture": "#1"},
				"south": {"uv": [6.5, 1.5, 7.5, 2], "texture": "#1"},
				"west": {"uv": [8.5, 1, 9, 1.5], "texture": "#1"},
				"up": {"uv": [7.5, 2.5, 6.5, 2], "texture": "#1"},
				"down": {"uv": [7.5, 5, 6.5, 5.5], "texture": "#1"}
			}
		},
		{
			"name": "octagon",
			"from": [2.0071, 2.89717, 5.97731],
			"to": [2.80625, 4.82649, 6.19894],
			"rotation": {"angle": 45, "axis": "z", "origin": [8, 9.45516, 7.05531]},
			"faces": {
				"north": {"uv": [0.5, 7, 1, 8], "texture": "#1"},
				"east": {"uv": [1, 7, 1.5, 8], "texture": "#1"},
				"south": {"uv": [2, 7, 2.5, 8], "texture": "#1"},
				"west": {"uv": [2.5, 7, 3, 8], "texture": "#1"},
				"up": {"uv": [9, 2, 8.5, 1.5], "texture": "#1"},
				"down": {"uv": [9, 2, 8.5, 2.5], "texture": "#1"}
			}
		},
		{
			"name": "octagon",
			"from": [7.60042, 0.58034, 5.97731],
			"to": [8.39958, 2.50966, 6.19894],
			"rotation": {"angle": 0, "axis": "y", "origin": [8, 9.45516, 7.05531]},
			"faces": {
				"north": {"uv": [4, 7, 4.5, 8], "texture": "#1"},
				"east": {"uv": [6, 7, 6.5, 8], "texture": "#1"},
				"south": {"uv": [6.5, 7, 7, 8], "texture": "#1"},
				"west": {"uv": [7, 7, 7.5, 8], "texture": "#1"},
				"up": {"uv": [9, 3, 8.5, 2.5], "texture": "#1"},
				"down": {"uv": [9, 3, 8.5, 3.5], "texture": "#1"}
			}
		},
		{
			"name": "octagon",
			"from": [1.44201, 3.46226, 5.97731],
			"to": [3.37133, 4.26141, 6.19894],
			"rotation": {"angle": 45, "axis": "z", "origin": [8, 9.45516, 7.05531]},
			"faces": {
				"north": {"uv": [6.5, 5.5, 7.5, 6], "texture": "#1"},
				"east": {"uv": [8.5, 3.5, 9, 4], "texture": "#1"},
				"south": {"uv": [7, 2.5, 8, 3], "texture": "#1"},
				"west": {"uv": [8.5, 4, 9, 4.5], "texture": "#1"},
				"up": {"uv": [8, 3.5, 7, 3], "texture": "#1"},
				"down": {"uv": [8, 3.5, 7, 4], "texture": "#1"}
			}
		},
		{
			"name": "octagon",
			"from": [7.03534, 1.14542, 5.97731],
			"to": [8.96466, 1.94458, 6.19894],
			"rotation": {"angle": 0, "axis": "y", "origin": [8, 9.45516, 7.05531]},
			"faces": {
				"north": {"uv": [7, 4, 8, 4.5], "texture": "#1"},
				"east": {"uv": [8.5, 4.5, 9, 5], "texture": "#1"},
				"south": {"uv": [7, 4.5, 8, 5], "texture": "#1"},
				"west": {"uv": [8.5, 5, 9, 5.5], "texture": "#1"},
				"up": {"uv": [8, 6.5, 7, 6], "texture": "#1"},
				"down": {"uv": [8, 6.5, 7, 7], "texture": "#1"}
			}
		},
		{
			"name": "octagon",
			"from": [1.18988, 3.08156, 6.7747],
			"to": [2.09801, 5.27397, 7.02655],
			"rotation": {"angle": 45, "axis": "z", "origin": [8, 10.53382, 7.11049]},
			"faces": {
				"north": {"uv": [0, 7.5, 0.5, 8.5], "texture": "#1"},
				"east": {"uv": [1.5, 7.5, 2, 8.5], "texture": "#1"},
				"south": {"uv": [3, 7.5, 3.5, 8.5], "texture": "#1"},
				"west": {"uv": [3.5, 7.5, 4, 8.5], "texture": "#1"},
				"up": {"uv": [9, 6, 8.5, 5.5], "texture": "#1"},
				"down": {"uv": [9, 6, 8.5, 6.5], "texture": "#1"}
			}
		},
		{
			"name": "octagon",
			"from": [7.54594, 0.4488, 6.7747],
			"to": [8.45406, 2.6412, 7.02655],
			"rotation": {"angle": 0, "axis": "y", "origin": [8, 10.53382, 7.11049]},
			"faces": {
				"north": {"uv": [4.5, 7.5, 5, 8.5], "texture": "#1"},
				"east": {"uv": [5, 7.5, 5.5, 8.5], "texture": "#1"},
				"south": {"uv": [5.5, 7.5, 6, 8.5], "texture": "#1"},
				"west": {"uv": [7.5, 7.5, 8, 8.5], "texture": "#1"},
				"up": {"uv": [9, 7, 8.5, 6.5], "texture": "#1"},
				"down": {"uv": [9, 7, 8.5, 7.5], "texture": "#1"}
			}
		},
		{
			"name": "octagon",
			"from": [0.54774, 3.7237, 6.7747],
			"to": [2.74015, 4.63183, 7.02655],
			"rotation": {"angle": 45, "axis": "z", "origin": [8, 10.53382, 7.11049]},
			"faces": {
				"north": {"uv": [7.5, 0, 8.5, 0.5], "texture": "#1"},
				"east": {"uv": [8.5, 7.5, 9, 8], "texture": "#1"},
				"south": {"uv": [7.5, 0.5, 8.5, 1], "texture": "#1"},
				"west": {"uv": [8.5, 8, 9, 8.5], "texture": "#1"},
				"up": {"uv": [8.5, 1.5, 7.5, 1], "texture": "#1"},
				"down": {"uv": [8.5, 1.5, 7.5, 2], "texture": "#1"}
			}
		},
		{
			"name": "octagon",
			"from": [6.9038, 1.09094, 6.7747],
			"to": [9.0962, 1.99906, 7.02655],
			"rotation": {"angle": 0, "axis": "y", "origin": [8, 10.53382, 7.11049]},
			"faces": {
				"north": {"uv": [7.5, 2, 8.5, 2.5], "texture": "#1"},
				"east": {"uv": [0, 9, 0.5, 9.5], "texture": "#1"},
				"south": {"uv": [7.5, 5, 8.5, 5.5], "texture": "#1"},
				"west": {"uv": [0.5, 9, 1, 9.5], "texture": "#1"},
				"up": {"uv": [8.5, 6, 7.5, 5.5], "texture": "#1"},
				"down": {"uv": [8.5, 7, 7.5, 7.5], "texture": "#1"}
			}
		}
	],
	"display": {
		"thirdperson_righthand": {
			"rotation": [90, 0, 0],
			"translation": [0, 0, 3],
			"scale": [0.5, 0.5, 0.5]
		},
		"thirdperson_lefthand": {
			"rotation": [90, 0, 0],
			"translation": [0, 0, 3],
			"scale": [0.5, 0.5, 0.5]
		},
		"firstperson_righthand": {
			"rotation": [90, 0, 30]
		},
		"firstperson_lefthand": {
			"rotation": [90, 0, 30]
		},
		"ground": {
			"translation": [0, 4, 0]
		},
		"gui": {
			"rotation": [90, 0, 30],
			"translation": [-3, -4, 0]
		},
		"fixed": {
			"rotation": [90, 45, 0],
			"translation": [1.25, -1.75, 6]
		}
	}
}