{
	"credit": "Made with Blockbench",
	"texture_size": [32, 32],
	"textures": {
		"14": "tardis:item/sonics/mk4_handle"
	},
	"elements": [
		{
			"name": "octagon",
			"from": [1.96266, 2.9072, 9.45581],
			"to": [2.76774, 4.85082, 11.17669],
			"rotation": {"angle": 45, "axis": "z", "origin": [8, 9.51381, 6.0576]},
			"faces": {
				"north": {"uv": [4, 3, 4.5, 4], "texture": "#14"},
				"east": {"uv": [0, 0, 1, 1], "texture": "#14"},
				"south": {"uv": [4.5, 3, 5, 4], "texture": "#14"},
				"west": {"uv": [0, 1, 1, 2], "texture": "#14"},
				"up": {"uv": [0.5, 6, 0, 5], "texture": "#14"},
				"down": {"uv": [1, 5, 0.5, 6], "texture": "#14"}
			}
		},
		{
			"name": "octagon",
			"from": [7.59746, 0.57319, 9.45581],
			"to": [8.40254, 2.51681, 11.17669],
			"rotation": {"angle": 0, "axis": "y", "origin": [8, 9.51381, 6.0576]},
			"faces": {
				"north": {"uv": [1, 5, 1.5, 6], "texture": "#14"},
				"east": {"uv": [1, 1, 2, 2], "texture": "#14"},
				"south": {"uv": [1.5, 5, 2, 6], "texture": "#14"},
				"west": {"uv": [1, 0, 2, 1], "texture": "#14"},
				"up": {"uv": [2.5, 6, 2, 5], "texture": "#14"},
				"down": {"uv": [3, 5, 2.5, 6], "texture": "#14"}
			}
		},
		{
			"name": "octagon",
			"from": [1.39339, 3.47647, 9.45581],
			"to": [3.33701, 4.28155, 11.17669],
			"rotation": {"angle": 45, "axis": "z", "origin": [8, 9.51381, 6.0576]},
			"faces": {
				"north": {"uv": [3, 5, 4, 5.5], "texture": "#14"},
				"east": {"uv": [4, 5, 5, 5.5], "texture": "#14"},
				"south": {"uv": [5, 5, 6, 5.5], "texture": "#14"},
				"west": {"uv": [5, 0, 6, 0.5], "texture": "#14"},
				"up": {"uv": [1, 3, 0, 2], "texture": "#14"},
				"down": {"uv": [2, 2, 1, 3], "texture": "#14"}
			}
		},
		{
			"name": "octagon",
			"from": [7.02819, 1.14246, 9.45581],
			"to": [8.97181, 1.94754, 11.17669],
			"rotation": {"angle": 0, "axis": "y", "origin": [8, 9.51381, 6.0576]},
			"faces": {
				"north": {"uv": [5, 0.5, 6, 1], "texture": "#14"},
				"east": {"uv": [5, 1, 6, 1.5], "texture": "#14"},
				"south": {"uv": [5, 1.5, 6, 2], "texture": "#14"},
				"west": {"uv": [5, 2, 6, 2.5], "texture": "#14"},
				"up": {"uv": [3, 3, 2, 2], "texture": "#14"},
				"down": {"uv": [3, 0, 2, 1], "texture": "#14"}
			}
		},
		{
			"name": "octagon",
			"from": [1.96266, 2.9072, 7.98706],
			"to": [2.76774, 4.85082, 9.20794],
			"rotation": {"angle": 45, "axis": "z", "origin": [8, 9.51381, 6.0576]},
			"faces": {
				"north": {"uv": [5, 2.5, 5.5, 3.5], "texture": "#14"},
				"east": {"uv": [5, 3.5, 5.5, 4.5], "texture": "#14"},
				"south": {"uv": [3, 5.5, 3.5, 6.5], "texture": "#14"},
				"west": {"uv": [3.5, 5.5, 4, 6.5], "texture": "#14"},
				"up": {"uv": [9, 2.5, 8.5, 2], "texture": "#14"},
				"down": {"uv": [9, 2.5, 8.5, 3], "texture": "#14"}
			}
		},
		{
			"name": "octagon",
			"from": [7.59746, 0.57319, 7.98706],
			"to": [8.40254, 2.51681, 9.20794],
			"rotation": {"angle": 0, "axis": "y", "origin": [8, 9.51381, 6.0576]},
			"faces": {
				"north": {"uv": [4, 5.5, 4.5, 6.5], "texture": "#14"},
				"east": {"uv": [4.5, 5.5, 5, 6.5], "texture": "#14"},
				"south": {"uv": [5, 5.5, 5.5, 6.5], "texture": "#14"},
				"west": {"uv": [5.5, 5.5, 6, 6.5], "texture": "#14"},
				"up": {"uv": [9, 4, 8.5, 3.5], "texture": "#14"},
				"down": {"uv": [9, 4, 8.5, 4.5], "texture": "#14"}
			}
		},
		{
			"name": "octagon",
			"from": [1.39339, 3.47647, 7.98706],
			"to": [3.33701, 4.28155, 9.20794],
			"rotation": {"angle": 45, "axis": "z", "origin": [8, 9.51381, 6.0576]},
			"faces": {
				"north": {"uv": [5, 4.5, 6, 5], "texture": "#14"},
				"east": {"uv": [8.5, 4.5, 9, 5], "texture": "#14"},
				"south": {"uv": [5.5, 2.5, 6.5, 3], "texture": "#14"},
				"west": {"uv": [8.5, 5, 9, 5.5], "texture": "#14"},
				"up": {"uv": [6.5, 3.5, 5.5, 3], "texture": "#14"},
				"down": {"uv": [6.5, 3.5, 5.5, 4], "texture": "#14"}
			}
		},
		{
			"name": "octagon",
			"from": [7.02819, 1.14246, 7.98706],
			"to": [8.97181, 1.94754, 9.20794],
			"rotation": {"angle": 0, "axis": "y", "origin": [8, 9.51381, 6.0576]},
			"faces": {
				"north": {"uv": [5.5, 4, 6.5, 4.5], "texture": "#14"},
				"east": {"uv": [8.5, 5.5, 9, 6], "texture": "#14"},
				"south": {"uv": [0, 6, 1, 6.5], "texture": "#14"},
				"west": {"uv": [8.5, 6, 9, 6.5], "texture": "#14"},
				"up": {"uv": [2, 6.5, 1, 6], "texture": "#14"},
				"down": {"uv": [3, 6, 2, 6.5], "texture": "#14"}
			}
		},
		{
			"name": "octagon",
			"from": [1.47967, 3.01617, 9.19573],
			"to": [2.34916, 5.11529, 9.46802],
			"rotation": {"angle": 45, "axis": "z", "origin": [8, 10.15132, 5.79565]},
			"faces": {
				"north": {"uv": [6, 6, 6.5, 7], "texture": "#14"},
				"east": {"uv": [6, 0, 6.5, 1], "texture": "#14"},
				"south": {"uv": [6, 1, 6.5, 2], "texture": "#14"},
				"west": {"uv": [6, 4.5, 6.5, 5.5], "texture": "#14"},
				"up": {"uv": [9, 7, 8.5, 6.5], "texture": "#14"},
				"down": {"uv": [9, 7, 8.5, 7.5], "texture": "#14"}
			}
		},
		{
			"name": "octagon",
			"from": [7.56526, 0.49544, 9.19573],
			"to": [8.43474, 2.59456, 9.46802],
			"rotation": {"angle": 0, "axis": "y", "origin": [8, 10.15132, 5.79565]},
			"faces": {
				"north": {"uv": [0, 6.5, 0.5, 7.5], "texture": "#14"},
				"east": {"uv": [0.5, 6.5, 1, 7.5], "texture": "#14"},
				"south": {"uv": [1, 6.5, 1.5, 7.5], "texture": "#14"},
				"west": {"uv": [1.5, 6.5, 2, 7.5], "texture": "#14"},
				"up": {"uv": [2.5, 9.5, 2, 9], "texture": "#14"},
				"down": {"uv": [3, 9, 2.5, 9.5], "texture": "#14"}
			}
		},
		{
			"name": "octagon",
			"from": [0.86486, 3.63099, 9.19573],
			"to": [2.96397, 4.50047, 9.46802],
			"rotation": {"angle": 45, "axis": "z", "origin": [8, 10.15132, 5.79565]},
			"faces": {
				"north": {"uv": [6, 2, 7, 2.5], "texture": "#14"},
				"east": {"uv": [3, 9, 3.5, 9.5], "texture": "#14"},
				"south": {"uv": [6, 5.5, 7, 6], "texture": "#14"},
				"west": {"uv": [3.5, 9, 4, 9.5], "texture": "#14"},
				"up": {"uv": [3, 7, 2, 6.5], "texture": "#14"},
				"down": {"uv": [4, 6.5, 3, 7], "texture": "#14"}
			}
		},
		{
			"name": "octagon",
			"from": [6.95044, 1.11026, 9.19573],
			"to": [9.04956, 1.97974, 9.46802],
			"rotation": {"angle": 0, "axis": "y", "origin": [8, 10.15132, 5.79565]},
			"faces": {
				"north": {"uv": [4, 6.5, 5, 7], "texture": "#14"},
				"east": {"uv": [4, 9, 4.5, 9.5], "texture": "#14"},
				"south": {"uv": [5, 6.5, 6, 7], "texture": "#14"},
				"west": {"uv": [4.5, 9, 5, 9.5], "texture": "#14"},
				"up": {"uv": [7.5, 7, 6.5, 6.5], "texture": "#14"},
				"down": {"uv": [7.5, 0, 6.5, 0.5], "texture": "#14"}
			}
		},
		{
			"name": "octagon",
			"from": [2.56639, 2.77098, 11.16529],
			"to": [3.29096, 4.52024, 12.99846],
			"rotation": {"angle": 45, "axis": "z", "origin": [8, 8.71693, 6.60377]},
			"faces": {
				"north": {"uv": [6.5, 0.5, 7, 1.5], "texture": "#14"},
				"east": {"uv": [2, 1, 3, 2], "texture": "#14"},
				"south": {"uv": [6.5, 2.5, 7, 3.5], "texture": "#14"},
				"west": {"uv": [0, 3, 1, 4], "texture": "#14"},
				"up": {"uv": [7, 4.5, 6.5, 3.5], "texture": "#14"},
				"down": {"uv": [7, 4.5, 6.5, 5.5], "texture": "#14"}
			}
		},
		{
			"name": "octagon",
			"from": [7.63772, 0.67037, 11.16529],
			"to": [8.36228, 2.41963, 12.99846],
			"rotation": {"angle": 0, "axis": "y", "origin": [8, 8.71693, 6.60377]},
			"faces": {
				"north": {"uv": [2, 7, 2.5, 8], "texture": "#14"},
				"east": {"uv": [1, 3, 2, 4], "texture": "#14"},
				"south": {"uv": [2.5, 7, 3, 8], "texture": "#14"},
				"west": {"uv": [2, 3, 3, 4], "texture": "#14"},
				"up": {"uv": [3.5, 8, 3, 7], "texture": "#14"},
				"down": {"uv": [4, 7, 3.5, 8], "texture": "#14"}
			}
		},
		{
			"name": "octagon",
			"from": [2.05405, 3.28333, 11.16529],
			"to": [3.80331, 4.00789, 12.99846],
			"rotation": {"angle": 45, "axis": "z", "origin": [8, 8.71693, 6.60377]},
			"faces": {
				"north": {"uv": [6.5, 1.5, 7.5, 2], "texture": "#14"},
				"east": {"uv": [6.5, 6, 7.5, 6.5], "texture": "#14"},
				"south": {"uv": [4, 7, 5, 7.5], "texture": "#14"},
				"west": {"uv": [5, 7, 6, 7.5], "texture": "#14"},
				"up": {"uv": [4, 4, 3, 3], "texture": "#14"},
				"down": {"uv": [4, 0, 3, 1], "texture": "#14"}
			}
		},
		{
			"name": "octagon",
			"from": [7.12537, 1.18272, 11.16529],
			"to": [8.87463, 1.90728, 12.99846],
			"rotation": {"angle": 0, "axis": "y", "origin": [8, 8.71693, 6.60377]},
			"faces": {
				"north": {"uv": [6, 7, 7, 7.5], "texture": "#14"},
				"east": {"uv": [7, 7, 8, 7.5], "texture": "#14"},
				"south": {"uv": [7, 0.5, 8, 1], "texture": "#14"},
				"west": {"uv": [7, 1, 8, 1.5], "texture": "#14"},
				"up": {"uv": [4, 2, 3, 1], "texture": "#14"},
				"down": {"uv": [4, 2, 3, 3], "texture": "#14"}
			}
		},
		{
			"name": "octagon",
			"from": [2.56639, 2.77098, 14.41529],
			"to": [3.29096, 4.52024, 14.99846],
			"rotation": {"angle": 45, "axis": "z", "origin": [8, 8.71693, 6.60377]},
			"faces": {
				"north": {"uv": [7, 2, 7.5, 3], "texture": "#14"},
				"east": {"uv": [7, 3, 7.5, 4], "texture": "#14"},
				"south": {"uv": [7, 4, 7.5, 5], "texture": "#14"},
				"west": {"uv": [7, 5, 7.5, 6], "texture": "#14"},
				"up": {"uv": [5.5, 9.5, 5, 9], "texture": "#14"},
				"down": {"uv": [6, 9, 5.5, 9.5], "texture": "#14"}
			}
		},
		{
			"name": "octagon",
			"from": [7.63772, 0.67037, 14.41529],
			"to": [8.36228, 2.41963, 14.99846],
			"rotation": {"angle": 0, "axis": "y", "origin": [8, 8.71693, 6.60377]},
			"faces": {
				"north": {"uv": [0, 7.5, 0.5, 8.5], "texture": "#14"},
				"east": {"uv": [0.5, 7.5, 1, 8.5], "texture": "#14"},
				"south": {"uv": [1, 7.5, 1.5, 8.5], "texture": "#14"},
				"west": {"uv": [1.5, 7.5, 2, 8.5], "texture": "#14"},
				"up": {"uv": [6.5, 9.5, 6, 9], "texture": "#14"},
				"down": {"uv": [7, 9, 6.5, 9.5], "texture": "#14"}
			}
		},
		{
			"name": "octagon",
			"from": [2.05405, 3.28333, 14.41529],
			"to": [3.80331, 4.00789, 14.99846],
			"rotation": {"angle": 45, "axis": "z", "origin": [8, 8.71693, 6.60377]},
			"faces": {
				"north": {"uv": [4, 7.5, 5, 8], "texture": "#14"},
				"east": {"uv": [7, 9, 7.5, 9.5], "texture": "#14"},
				"south": {"uv": [5, 7.5, 6, 8], "texture": "#14"},
				"west": {"uv": [7.5, 9, 8, 9.5], "texture": "#14"},
				"up": {"uv": [7, 8, 6, 7.5], "texture": "#14"},
				"down": {"uv": [8, 7.5, 7, 8], "texture": "#14"}
			}
		},
		{
			"name": "octagon",
			"from": [7.12537, 1.18272, 14.41529],
			"to": [8.87463, 1.90728, 14.99846],
			"rotation": {"angle": 0, "axis": "y", "origin": [8, 8.71693, 6.60377]},
			"faces": {
				"north": {"uv": [7.5, 0, 8.5, 0.5], "texture": "#14"},
				"east": {"uv": [8, 9, 8.5, 9.5], "texture": "#14"},
				"south": {"uv": [7.5, 1.5, 8.5, 2], "texture": "#14"},
				"west": {"uv": [8.5, 9, 9, 9.5], "texture": "#14"},
				"up": {"uv": [8.5, 2.5, 7.5, 2], "texture": "#14"},
				"down": {"uv": [8.5, 2.5, 7.5, 3], "texture": "#14"}
			}
		},
		{
			"name": "octagon",
			"from": [3.10976, 2.64838, 12.9882],
			"to": [3.76187, 4.22272, 14.5193],
			"rotation": {"angle": 45, "axis": "z", "origin": [8, 7.99974, 7.29533]},
			"faces": {
				"north": {"uv": [7.5, 3, 8, 4], "texture": "#14"},
				"east": {"uv": [0, 4, 1, 5], "texture": "#14"},
				"south": {"uv": [7.5, 4, 8, 5], "texture": "#14"},
				"west": {"uv": [1, 4, 2, 5], "texture": "#14"},
				"up": {"uv": [8, 6, 7.5, 5], "texture": "#14"},
				"down": {"uv": [8, 6, 7.5, 7], "texture": "#14"}
			}
		},
		{
			"name": "octagon",
			"from": [7.67394, 0.75783, 12.9882],
			"to": [8.32606, 2.33217, 14.5193],
			"rotation": {"angle": 0, "axis": "y", "origin": [8, 7.99974, 7.29533]},
			"faces": {
				"north": {"uv": [2, 8, 2.5, 9], "texture": "#14"},
				"east": {"uv": [2, 4, 3, 5], "texture": "#14"},
				"south": {"uv": [2.5, 8, 3, 9], "texture": "#14"},
				"west": {"uv": [3, 4, 4, 5], "texture": "#14"},
				"up": {"uv": [3.5, 9, 3, 8], "texture": "#14"},
				"down": {"uv": [4, 8, 3.5, 9], "texture": "#14"}
			}
		},
		{
			"name": "octagon",
			"from": [2.64864, 3.10949, 12.9882],
			"to": [4.22298, 3.7616, 14.5193],
			"rotation": {"angle": 45, "axis": "z", "origin": [8, 7.99974, 7.29533]},
			"faces": {
				"north": {"uv": [4, 8, 5, 8.5], "texture": "#14"},
				"east": {"uv": [5, 8, 6, 8.5], "texture": "#14"},
				"south": {"uv": [6, 8, 7, 8.5], "texture": "#14"},
				"west": {"uv": [7, 8, 8, 8.5], "texture": "#14"},
				"up": {"uv": [5, 5, 4, 4], "texture": "#14"},
				"down": {"uv": [5, 0, 4, 1], "texture": "#14"}
			}
		},
		{
			"name": "octagon",
			"from": [7.21283, 1.21894, 12.9882],
			"to": [8.78717, 1.87106, 14.5193],
			"rotation": {"angle": 0, "axis": "y", "origin": [8, 7.99974, 7.29533]},
			"faces": {
				"north": {"uv": [8, 8, 9, 8.5], "texture": "#14"},
				"east": {"uv": [8, 0.5, 9, 1], "texture": "#14"},
				"south": {"uv": [8, 1, 9, 1.5], "texture": "#14"},
				"west": {"uv": [8, 3, 9, 3.5], "texture": "#14"},
				"up": {"uv": [5, 2, 4, 1], "texture": "#14"},
				"down": {"uv": [5, 2, 4, 3], "texture": "#14"}
			}
		},
		{
			"name": "octagon",
			"from": [2.77891, 2.72303, 7.01043],
			"to": [3.47514, 4.40388, 7.98457],
			"rotation": {"angle": 45, "axis": "z", "origin": [8, 8.43643, 7.13717]},
			"faces": {
				"north": {"uv": [8, 3.5, 8.5, 4.5], "texture": "#14"},
				"east": {"uv": [8, 4.5, 8.5, 5.5], "texture": "#14"},
				"south": {"uv": [8, 5.5, 8.5, 6.5], "texture": "#14"},
				"west": {"uv": [8, 6.5, 8.5, 7.5], "texture": "#14"},
				"up": {"uv": [9.5, 9.5, 9, 9], "texture": "#14"},
				"down": {"uv": [9.5, 0.5, 9, 1], "texture": "#14"}
			}
		},
		{
			"name": "octagon",
			"from": [7.65189, 0.70458, 7.01043],
			"to": [8.34811, 2.38542, 7.98457],
			"rotation": {"angle": 0, "axis": "y", "origin": [8, 8.43643, 7.13717]},
			"faces": {
				"north": {"uv": [0, 8.5, 0.5, 9.5], "texture": "#14"},
				"east": {"uv": [0.5, 8.5, 1, 9.5], "texture": "#14"},
				"south": {"uv": [1, 8.5, 1.5, 9.5], "texture": "#14"},
				"west": {"uv": [1.5, 8.5, 2, 9.5], "texture": "#14"},
				"up": {"uv": [9.5, 1.5, 9, 1], "texture": "#14"},
				"down": {"uv": [9.5, 2, 9, 2.5], "texture": "#14"}
			}
		},
		{
			"name": "octagon",
			"from": [2.2866, 3.21534, 7.01043],
			"to": [3.96745, 3.91157, 7.98457],
			"rotation": {"angle": 45, "axis": "z", "origin": [8, 8.43643, 7.13717]},
			"faces": {
				"north": {"uv": [8, 7.5, 9, 8], "texture": "#14"},
				"east": {"uv": [9, 2.5, 9.5, 3], "texture": "#14"},
				"south": {"uv": [4, 8.5, 5, 9], "texture": "#14"},
				"west": {"uv": [9, 3, 9.5, 3.5], "texture": "#14"},
				"up": {"uv": [6, 9, 5, 8.5], "texture": "#14"},
				"down": {"uv": [7, 8.5, 6, 9], "texture": "#14"}
			}
		},
		{
			"name": "octagon",
			"from": [7.15958, 1.19689, 7.01043],
			"to": [8.84042, 1.89311, 7.98457],
			"rotation": {"angle": 0, "axis": "y", "origin": [8, 8.43643, 7.13717]},
			"faces": {
				"north": {"uv": [7, 8.5, 8, 9], "texture": "#14"},
				"east": {"uv": [9, 3.5, 9.5, 4], "texture": "#14"},
				"south": {"uv": [8, 8.5, 9, 9], "texture": "#14"},
				"west": {"uv": [9, 4, 9.5, 4.5], "texture": "#14"},
				"up": {"uv": [9.5, 0.5, 8.5, 0], "texture": "#14"},
				"down": {"uv": [9.5, 1.5, 8.5, 2], "texture": "#14"}
			}
		}
	],
	"display": {
		"thirdperson_righthand": {
			"rotation": [90, 0, 0],
			"translation": [0, 0, 3],
			"scale": [0.5, 0.5, 0.5]
		},
		"thirdperson_lefthand": {
			"rotation": [90, 0, 0],
			"translation": [0, 0, 3],
			"scale": [0.5, 0.5, 0.5]
		},
		"firstperson_righthand": {
			"rotation": [90, 0, 30]
		},
		"firstperson_lefthand": {
			"rotation": [90, 0, 30]
		},
		"fixed": {
			"rotation": [90, 45, 0],
			"translation": [1.25, -1.75, 6]
		},
		"ground": {
			"translation": [0, 4, 0]
		},
		"gui": {
			"rotation": [90, 0, 30],
			"translation": [-3, 3, 0]
		}
	}
}