{
	"credit": "Made with Blockbench",
	"texture_size": [32, 32],
	"textures": {
		"15": "tardis:item/sonics/mk5_handle"
	},
	"elements": [
		{
			"name": "octagon",
			"from": [3.34642, 2.59498, 7.07918],
			"to": [3.96697, 4.09313, 13.75957],
			"rotation": {"angle": 45, "axis": "z", "origin": [8, 7.68736, 7.13644]},
			"faces": {
				"north": {"uv": [8.5, 1, 9, 1.5], "texture": "#15"},
				"east": {"uv": [0, 0, 3.5, 0.5], "texture": "#15"},
				"south": {"uv": [8.5, 2.5, 9, 3], "texture": "#15"},
				"west": {"uv": [0, 0.5, 3.5, 1], "texture": "#15"},
				"up": {"uv": [0.5, 4.5, 0, 1], "texture": "#15"},
				"down": {"uv": [1, 1, 0.5, 4.5], "texture": "#15"}
			}
		},
		{
			"name": "octagon",
			"from": [7.68972, 0.79593, 7.07918],
			"to": [8.31028, 2.29407, 13.75957],
			"rotation": {"angle": 0, "axis": "y", "origin": [8, 7.68736, 7.13644]},
			"faces": {
				"north": {"uv": [8.5, 3, 9, 3.5], "texture": "#15"},
				"east": {"uv": [1, 1, 4.5, 1.5], "texture": "#15"},
				"south": {"uv": [8.5, 3.5, 9, 4], "texture": "#15"},
				"west": {"uv": [1, 1.5, 4.5, 2], "texture": "#15"},
				"up": {"uv": [1.5, 5.5, 1, 2], "texture": "#15"},
				"down": {"uv": [2, 2, 1.5, 5.5], "texture": "#15"}
			}
		},
		{
			"name": "octagon",
			"from": [2.90762, 3.03378, 7.07918],
			"to": [4.40577, 3.65433, 13.75957],
			"rotation": {"angle": 45, "axis": "z", "origin": [8, 7.68736, 7.13644]},
			"faces": {
				"north": {"uv": [8.5, 4, 9, 4.5], "texture": "#15"},
				"east": {"uv": [2, 2, 5.5, 2.5], "texture": "#15"},
				"south": {"uv": [8.5, 4.5, 9, 5], "texture": "#15"},
				"west": {"uv": [2, 2.5, 5.5, 3], "texture": "#15"},
				"up": {"uv": [2.5, 6.5, 2, 3], "texture": "#15"},
				"down": {"uv": [3, 3, 2.5, 6.5], "texture": "#15"}
			}
		},
		{
			"name": "octagon",
			"from": [7.25093, 1.23472, 7.07918],
			"to": [8.74907, 1.85528, 13.75957],
			"rotation": {"angle": 0, "axis": "y", "origin": [8, 7.68736, 7.13644]},
			"faces": {
				"north": {"uv": [8.5, 5, 9, 5.5], "texture": "#15"},
				"east": {"uv": [3, 3, 6.5, 3.5], "texture": "#15"},
				"south": {"uv": [8.5, 5.5, 9, 6], "texture": "#15"},
				"west": {"uv": [3, 3.5, 6.5, 4], "texture": "#15"},
				"up": {"uv": [3.5, 7.5, 3, 4], "texture": "#15"},
				"down": {"uv": [4, 4, 3.5, 7.5], "texture": "#15"}
			}
		},
		{
			"name": "octagon",
			"from": [1.07547, 3.10737, 13.60385],
			"to": [1.99885, 5.33662, 14.09428],
			"rotation": {"angle": 45, "axis": "z", "origin": [8, 10.68483, 4.15805]},
			"faces": {
				"north": {"uv": [6, 6, 6.5, 7], "texture": "#15"},
				"east": {"uv": [6, 0, 6.5, 1], "texture": "#15"},
				"south": {"uv": [2, 6.5, 2.5, 7.5], "texture": "#15"},
				"west": {"uv": [2.5, 6.5, 3, 7.5], "texture": "#15"},
				"up": {"uv": [9, 6.5, 8.5, 6], "texture": "#15"},
				"down": {"uv": [9, 6.5, 8.5, 7], "texture": "#15"}
			}
		},
		{
			"name": "octagon",
			"from": [7.53831, 0.43038, 13.60385],
			"to": [8.46169, 2.65962, 14.09428],
			"rotation": {"angle": 0, "axis": "y", "origin": [8, 10.68483, 4.15805]},
			"faces": {
				"north": {"uv": [4, 6.5, 4.5, 7.5], "texture": "#15"},
				"east": {"uv": [6.5, 6.5, 7, 7.5], "texture": "#15"},
				"south": {"uv": [6.5, 0, 7, 1], "texture": "#15"},
				"west": {"uv": [6.5, 2.5, 7, 3.5], "texture": "#15"},
				"up": {"uv": [9, 7.5, 8.5, 7], "texture": "#15"},
				"down": {"uv": [9, 7.5, 8.5, 8], "texture": "#15"}
			}
		},
		{
			"name": "octagon",
			"from": [0.42254, 3.7603, 13.60385],
			"to": [2.65178, 4.68369, 14.09428],
			"rotation": {"angle": 45, "axis": "z", "origin": [8, 10.68483, 4.15805]},
			"faces": {
				"north": {"uv": [5.5, 2.5, 6.5, 3], "texture": "#15"},
				"east": {"uv": [0, 9, 0.5, 9.5], "texture": "#15"},
				"south": {"uv": [5.5, 5, 6.5, 5.5], "texture": "#15"},
				"west": {"uv": [0.5, 9, 1, 9.5], "texture": "#15"},
				"up": {"uv": [7.5, 4, 6.5, 3.5], "texture": "#15"},
				"down": {"uv": [7.5, 5, 6.5, 5.5], "texture": "#15"}
			}
		},
		{
			"name": "octagon",
			"from": [6.88538, 1.08331, 13.60385],
			"to": [9.11462, 2.00669, 14.09428],
			"rotation": {"angle": 0, "axis": "y", "origin": [8, 10.68483, 4.15805]},
			"faces": {
				"north": {"uv": [6.5, 6, 7.5, 6.5], "texture": "#15"},
				"east": {"uv": [1, 9, 1.5, 9.5], "texture": "#15"},
				"south": {"uv": [0, 7, 1, 7.5], "texture": "#15"},
				"west": {"uv": [1.5, 9, 2, 9.5], "texture": "#15"},
				"up": {"uv": [8, 7.5, 7, 7], "texture": "#15"},
				"down": {"uv": [8, 0, 7, 0.5], "texture": "#15"}
			}
		},
		{
			"name": "octagon",
			"from": [1.07547, 3.10737, 13.11635],
			"to": [1.99885, 5.33662, 13.26928],
			"rotation": {"angle": 45, "axis": "z", "origin": [8, 10.68483, 4.15805]},
			"faces": {
				"north": {"uv": [6, 7, 6.5, 8], "texture": "#15"},
				"east": {"uv": [7, 0.5, 7.5, 1.5], "texture": "#15"},
				"south": {"uv": [7, 2.5, 7.5, 3.5], "texture": "#15"},
				"west": {"uv": [7, 4, 7.5, 5], "texture": "#15"},
				"up": {"uv": [2.5, 9.5, 2, 9], "texture": "#15"},
				"down": {"uv": [3, 9, 2.5, 9.5], "texture": "#15"}
			}
		},
		{
			"name": "octagon",
			"from": [7.53831, 0.43038, 13.11635],
			"to": [8.46169, 2.65962, 13.26928],
			"rotation": {"angle": 0, "axis": "y", "origin": [8, 10.68483, 4.15805]},
			"faces": {
				"north": {"uv": [0, 7.5, 0.5, 8.5], "texture": "#15"},
				"east": {"uv": [0.5, 7.5, 1, 8.5], "texture": "#15"},
				"south": {"uv": [2, 7.5, 2.5, 8.5], "texture": "#15"},
				"west": {"uv": [2.5, 7.5, 3, 8.5], "texture": "#15"},
				"up": {"uv": [3.5, 9.5, 3, 9], "texture": "#15"},
				"down": {"uv": [4, 9, 3.5, 9.5], "texture": "#15"}
			}
		},
		{
			"name": "octagon",
			"from": [0.42254, 3.7603, 13.11635],
			"to": [2.65178, 4.68369, 13.26928],
			"rotation": {"angle": 45, "axis": "z", "origin": [8, 10.68483, 4.15805]},
			"faces": {
				"north": {"uv": [7, 1.5, 8, 2], "texture": "#15"},
				"east": {"uv": [4, 9, 4.5, 9.5], "texture": "#15"},
				"south": {"uv": [7, 6.5, 8, 7], "texture": "#15"},
				"west": {"uv": [4.5, 9, 5, 9.5], "texture": "#15"},
				"up": {"uv": [4, 8, 3, 7.5], "texture": "#15"},
				"down": {"uv": [5, 7.5, 4, 8], "texture": "#15"}
			}
		},
		{
			"name": "octagon",
			"from": [6.88538, 1.08331, 13.11635],
			"to": [9.11462, 2.00669, 13.26928],
			"rotation": {"angle": 0, "axis": "y", "origin": [8, 10.68483, 4.15805]},
			"faces": {
				"north": {"uv": [6.5, 7.5, 7.5, 8], "texture": "#15"},
				"east": {"uv": [5, 9, 5.5, 9.5], "texture": "#15"},
				"south": {"uv": [7.5, 7.5, 8.5, 8], "texture": "#15"},
				"west": {"uv": [5.5, 9, 6, 9.5], "texture": "#15"},
				"up": {"uv": [8.5, 1, 7.5, 0.5], "texture": "#15"},
				"down": {"uv": [8.5, 1, 7.5, 1.5], "texture": "#15"}
			}
		},
		{
			"name": "octagon",
			"from": [1.32547, 3.10737, 8.11635],
			"to": [1.74885, 3.21162, 13.11303],
			"rotation": {"angle": 45, "axis": "z", "origin": [8, 10.68483, 4.15805]},
			"faces": {
				"north": {"uv": [6, 9, 6.5, 9.5], "texture": "#15"},
				"east": {"uv": [3.5, 0, 6, 0.5], "texture": "#15"},
				"south": {"uv": [6.5, 9, 7, 9.5], "texture": "#15"},
				"west": {"uv": [3.5, 0.5, 6, 1], "texture": "#15"},
				"up": {"uv": [4.5, 6.5, 4, 4], "texture": "#15"},
				"down": {"uv": [0.5, 4.5, 0, 7], "texture": "#15"}
			}
		},
		{
			"name": "octagon",
			"from": [1.32547, 5.23237, 8.11635],
			"to": [1.74885, 5.33662, 13.11303],
			"rotation": {"angle": 45, "axis": "z", "origin": [8, 10.68483, 4.15805]},
			"faces": {
				"north": {"uv": [7, 9, 7.5, 9.5], "texture": "#15"},
				"east": {"uv": [4.5, 4.5, 7, 5], "texture": "#15"},
				"south": {"uv": [7.5, 9, 8, 9.5], "texture": "#15"},
				"west": {"uv": [4.5, 1, 7, 1.5], "texture": "#15"},
				"up": {"uv": [1, 7, 0.5, 4.5], "texture": "#15"},
				"down": {"uv": [5, 5, 4.5, 7.5], "texture": "#15"}
			}
		},
		{
			"name": "octagon",
			"from": [0.42254, 4.0103, 8.11635],
			"to": [0.54754, 4.43369, 13.11303],
			"rotation": {"angle": 45, "axis": "z", "origin": [8, 10.68483, 4.15805]},
			"faces": {
				"north": {"uv": [8, 9, 8.5, 9.5], "texture": "#15"},
				"east": {"uv": [4.5, 1.5, 7, 2], "texture": "#15"},
				"south": {"uv": [8.5, 9, 9, 9.5], "texture": "#15"},
				"west": {"uv": [4.5, 4, 7, 4.5], "texture": "#15"},
				"up": {"uv": [5.5, 7.5, 5, 5], "texture": "#15"},
				"down": {"uv": [1.5, 5.5, 1, 8], "texture": "#15"}
			}
		},
		{
			"name": "octagon",
			"from": [2.54754, 4.0103, 8.11635],
			"to": [2.65178, 4.43369, 13.11303],
			"rotation": {"angle": 45, "axis": "z", "origin": [8, 10.68483, 4.15805]},
			"faces": {
				"north": {"uv": [9, 9, 9.5, 9.5], "texture": "#15"},
				"east": {"uv": [5.5, 5.5, 8, 6], "texture": "#15"},
				"south": {"uv": [9, 0, 9.5, 0.5], "texture": "#15"},
				"west": {"uv": [5.5, 2, 8, 2.5], "texture": "#15"},
				"up": {"uv": [2, 8, 1.5, 5.5], "texture": "#15"},
				"down": {"uv": [6, 6, 5.5, 8.5], "texture": "#15"}
			}
		},
		{
			"name": "octagon",
			"from": [2.26016, 2.79515, 7.10611],
			"to": [2.62427, 3.1348, 8.31076],
			"rotation": {"angle": 45, "axis": "z", "origin": [8.00026, 9.40551, 4.69448]},
			"faces": {
				"north": {"uv": [8, 5.5, 8.5, 6], "texture": "#15"},
				"east": {"uv": [8, 6.5, 8.5, 7], "texture": "#15"},
				"south": {"uv": [8, 7, 8.5, 7.5], "texture": "#15"},
				"west": {"uv": [0, 8.5, 0.5, 9], "texture": "#15"},
				"up": {"uv": [1, 9, 0.5, 8.5], "texture": "#15"},
				"down": {"uv": [2.5, 8.5, 2, 9], "texture": "#15"}
			}
		},
		{
			"name": "octagon",
			"from": [2.26016, 4.43515, 7.10611],
			"to": [2.62427, 4.8998, 8.31076],
			"rotation": {"angle": 45, "axis": "z", "origin": [8.00026, 9.40551, 4.69448]},
			"faces": {
				"north": {"uv": [2.5, 8.5, 3, 9], "texture": "#15"},
				"east": {"uv": [4, 8.5, 4.5, 9], "texture": "#15"},
				"south": {"uv": [4.5, 8.5, 5, 9], "texture": "#15"},
				"west": {"uv": [5, 8.5, 5.5, 9], "texture": "#15"},
				"up": {"uv": [6, 9, 5.5, 8.5], "texture": "#15"},
				"down": {"uv": [6.5, 8.5, 6, 9], "texture": "#15"}
			}
		},
		{
			"name": "octagon",
			"from": [1.38989, 3.66542, 7.10611],
			"to": [1.80989, 4.02953, 8.31076],
			"rotation": {"angle": 45, "axis": "z", "origin": [8.00026, 9.40551, 4.69448]},
			"faces": {
				"north": {"uv": [6.5, 8.5, 7, 9], "texture": "#15"},
				"east": {"uv": [7, 8.5, 7.5, 9], "texture": "#15"},
				"south": {"uv": [7.5, 8.5, 8, 9], "texture": "#15"},
				"west": {"uv": [8, 8.5, 8.5, 9], "texture": "#15"},
				"up": {"uv": [9, 9, 8.5, 8.5], "texture": "#15"},
				"down": {"uv": [9, 0.5, 8.5, 1], "texture": "#15"}
			}
		},
		{
			"name": "octagon",
			"from": [3.12364, 3.66542, 7.10611],
			"to": [3.49454, 4.02953, 8.31076],
			"rotation": {"angle": 45, "axis": "z", "origin": [8.00026, 9.40551, 4.69448]},
			"faces": {
				"north": {"uv": [8, 2.5, 8.5, 3], "texture": "#15"},
				"east": {"uv": [8, 3, 8.5, 3.5], "texture": "#15"},
				"south": {"uv": [8, 3.5, 8.5, 4], "texture": "#15"},
				"west": {"uv": [8, 4, 8.5, 4.5], "texture": "#15"},
				"up": {"uv": [8.5, 5, 8, 4.5], "texture": "#15"},
				"down": {"uv": [8.5, 5, 8, 5.5], "texture": "#15"}
			}
		},
		{
			"name": "octagon",
			"from": [3.26824, 2.61262, 13.97056],
			"to": [3.89922, 4.13594, 14.93069],
			"rotation": {"angle": 45, "axis": "z", "origin": [8, 7.79055, 7.08781]},
			"faces": {
				"north": {"uv": [5, 7.5, 5.5, 8.5], "texture": "#15"},
				"east": {"uv": [7.5, 2.5, 8, 3.5], "texture": "#15"},
				"south": {"uv": [7.5, 3.5, 8, 4.5], "texture": "#15"},
				"west": {"uv": [7.5, 4.5, 8, 5.5], "texture": "#15"},
				"up": {"uv": [9.5, 1, 9, 0.5], "texture": "#15"},
				"down": {"uv": [9.5, 1, 9, 1.5], "texture": "#15"}
			}
		},
		{
			"name": "octagon",
			"from": [7.68451, 0.78334, 13.97056],
			"to": [8.31549, 2.30666, 14.93069],
			"rotation": {"angle": 0, "axis": "y", "origin": [8, 7.79055, 7.08781]},
			"faces": {
				"north": {"uv": [1, 8, 1.5, 9], "texture": "#15"},
				"east": {"uv": [1.5, 8, 2, 9], "texture": "#15"},
				"south": {"uv": [3, 8, 3.5, 9], "texture": "#15"},
				"west": {"uv": [3.5, 8, 4, 9], "texture": "#15"},
				"up": {"uv": [9.5, 2, 9, 1.5], "texture": "#15"},
				"down": {"uv": [9.5, 2, 9, 2.5], "texture": "#15"}
			}
		},
		{
			"name": "octagon",
			"from": [2.82207, 3.05879, 13.97056],
			"to": [4.34539, 3.68977, 14.93069],
			"rotation": {"angle": 45, "axis": "z", "origin": [8, 7.79055, 7.08781]},
			"faces": {
				"north": {"uv": [7.5, 6, 8.5, 6.5], "texture": "#15"},
				"east": {"uv": [9, 2.5, 9.5, 3], "texture": "#15"},
				"south": {"uv": [4, 8, 5, 8.5], "texture": "#15"},
				"west": {"uv": [9, 3, 9.5, 3.5], "texture": "#15"},
				"up": {"uv": [7, 8.5, 6, 8], "texture": "#15"},
				"down": {"uv": [8, 8, 7, 8.5], "texture": "#15"}
			}
		},
		{
			"name": "octagon",
			"from": [7.23834, 1.22951, 13.97056],
			"to": [8.76166, 1.86049, 14.93069],
			"rotation": {"angle": 0, "axis": "y", "origin": [8, 7.79055, 7.08781]},
			"faces": {
				"north": {"uv": [8, 8, 9, 8.5], "texture": "#15"},
				"east": {"uv": [9, 3.5, 9.5, 4], "texture": "#15"},
				"south": {"uv": [8, 0, 9, 0.5], "texture": "#15"},
				"west": {"uv": [9, 4, 9.5, 4.5], "texture": "#15"},
				"up": {"uv": [9, 2, 8, 1.5], "texture": "#15"},
				"down": {"uv": [9, 2, 8, 2.5], "texture": "#15"}
			}
		}
	],
	"display": {
		"thirdperson_righthand": {
			"rotation": [90, 0, 0],
			"translation": [0, 0, 3],
			"scale": [0.5, 0.5, 0.5]
		},
		"thirdperson_lefthand": {
			"rotation": [90, 0, 0],
			"translation": [0, 0, 3],
			"scale": [0.5, 0.5, 0.5]
		},
		"firstperson_righthand": {
			"rotation": [90, 0, 30]
		},
		"firstperson_lefthand": {
			"rotation": [90, 0, 30]
		},
		"fixed": {
			"rotation": [90, 45, 0],
			"translation": [1.25, -1.75, 6]
		},
		"ground": {
			"translation": [0, 4, 0]
		},
		"gui": {
			"rotation": [90, 0, 30],
			"translation": [-3, 3, 0]
		}
	}
}