{
	"credit": "Made with Blockbench",
	"texture_size": [32, 32],
	"textures": {
		"11": "tardis:item/sonics/mk6_end"
	},
	"elements": [
		{
			"name": "octagon",
			"from": [3.34244, 3.34997, 19.06374],
			"to": [4.31384, 3.61791, 19.36251],
			"rotation": {"angle": 45, "axis": "z", "origin": [8, 8.2183, 9.38323]},
			"faces": {
				"north": {"uv": [1, 0.5, 1.5, 1], "texture": "#11"},
				"east": {"uv": [1, 2.5, 1.5, 3], "texture": "#11"},
				"south": {"uv": [0, 3, 0.5, 3.5], "texture": "#11"},
				"west": {"uv": [7.5, 2, 8, 2.5], "texture": "#11"},
				"up": {"uv": [8, 3, 7.5, 2.5], "texture": "#11"},
				"down": {"uv": [8, 3, 7.5, 3.5], "texture": "#11"}
			}
		},
		{
			"name": "octagon",
			"from": [-0.12003, 4.27978, 15.26968],
			"to": [0.57471, 4.63471, 15.57032],
			"rotation": {"angle": 45, "axis": "z", "origin": [8.24984, 10.6036, 7.17767]},
			"faces": {
				"north": {"uv": [7.5, 3.5, 8, 4], "texture": "#11"},
				"east": {"uv": [7.5, 4, 8, 4.5], "texture": "#11"},
				"south": {"uv": [7.5, 4.5, 8, 5], "texture": "#11"},
				"west": {"uv": [7.5, 5, 8, 5.5], "texture": "#11"},
				"up": {"uv": [8, 6, 7.5, 5.5], "texture": "#11"},
				"down": {"uv": [8, 6, 7.5, 6.5], "texture": "#11"}
			}
		},
		{
			"name": "octagon",
			"from": [-0.08878, 4.34228, 15.56843],
			"to": [0.11971, 4.57221, 17.95157],
			"rotation": {"angle": 45, "axis": "z", "origin": [8.24984, 10.6036, 7.17767]},
			"faces": {
				"north": {"uv": [7.5, 6.5, 8, 7], "texture": "#11"},
				"east": {"uv": [0.5, 0, 1.5, 0.5], "texture": "#11"},
				"south": {"uv": [0, 8, 0.5, 8.5], "texture": "#11"},
				"west": {"uv": [1, 3, 2, 3.5], "texture": "#11"},
				"up": {"uv": [2, 4.5, 1.5, 3.5], "texture": "#11"},
				"down": {"uv": [2.5, 3.5, 2, 4.5], "texture": "#11"}
			}
		},
		{
			"name": "octagon",
			"from": [-0.08878, 4.34228, 17.94968],
			"to": [0.57471, 4.57221, 18.18782],
			"rotation": {"angle": 45, "axis": "z", "origin": [8.24984, 10.6036, 7.17767]},
			"faces": {
				"north": {"uv": [0.5, 8, 1, 8.5], "texture": "#11"},
				"east": {"uv": [1, 8, 1.5, 8.5], "texture": "#11"},
				"south": {"uv": [2.5, 8, 3, 8.5], "texture": "#11"},
				"west": {"uv": [3, 8, 3.5, 8.5], "texture": "#11"},
				"up": {"uv": [4, 8.5, 3.5, 8], "texture": "#11"},
				"down": {"uv": [4.5, 8, 4, 8.5], "texture": "#11"}
			}
		},
		{
			"name": "octagon",
			"from": [2.94417, 2.68574, 14.93874],
			"to": [3.61836, 4.31339, 15.36251],
			"rotation": {"angle": 45, "axis": "z", "origin": [8, 8.2183, 9.38323]},
			"faces": {
				"north": {"uv": [2.5, 3.5, 3, 4.5], "texture": "#11"},
				"east": {"uv": [3, 3.5, 3.5, 4.5], "texture": "#11"},
				"south": {"uv": [3.5, 3.5, 4, 4.5], "texture": "#11"},
				"west": {"uv": [3.5, 0, 4, 1], "texture": "#11"},
				"up": {"uv": [5, 8.5, 4.5, 8], "texture": "#11"},
				"down": {"uv": [5.5, 8, 5, 8.5], "texture": "#11"}
			}
		},
		{
			"name": "octagon",
			"from": [7.6629, 0.73118, 14.93874],
			"to": [8.3371, 2.35882, 15.36251],
			"rotation": {"angle": 0, "axis": "y", "origin": [8, 8.2183, 9.38323]},
			"faces": {
				"north": {"uv": [3.5, 1, 4, 2], "texture": "#11"},
				"east": {"uv": [0, 4, 0.5, 5], "texture": "#11"},
				"south": {"uv": [0.5, 4, 1, 5], "texture": "#11"},
				"west": {"uv": [1, 4, 1.5, 5], "texture": "#11"},
				"up": {"uv": [6, 8.5, 5.5, 8], "texture": "#11"},
				"down": {"uv": [6.5, 8, 6, 8.5], "texture": "#11"}
			}
		},
		{
			"name": "octagon",
			"from": [2.46744, 3.16247, 14.93874],
			"to": [4.09509, 3.83666, 15.36251],
			"rotation": {"angle": 45, "axis": "z", "origin": [8, 8.2183, 9.38323]},
			"faces": {
				"north": {"uv": [4, 4, 5, 4.5], "texture": "#11"},
				"east": {"uv": [6.5, 8, 7, 8.5], "texture": "#11"},
				"south": {"uv": [4, 0, 5, 0.5], "texture": "#11"},
				"west": {"uv": [7, 8, 7.5, 8.5], "texture": "#11"},
				"up": {"uv": [5, 1, 4, 0.5], "texture": "#11"},
				"down": {"uv": [5, 1, 4, 1.5], "texture": "#11"}
			}
		},
		{
			"name": "octagon",
			"from": [7.18618, 1.2079, 14.93874],
			"to": [8.81382, 1.8821, 15.36251],
			"rotation": {"angle": 0, "axis": "y", "origin": [8, 8.2183, 9.38323]},
			"faces": {
				"north": {"uv": [4, 1.5, 5, 2], "texture": "#11"},
				"east": {"uv": [7.5, 8, 8, 8.5], "texture": "#11"},
				"south": {"uv": [4, 2, 5, 2.5], "texture": "#11"},
				"west": {"uv": [8, 8, 8.5, 8.5], "texture": "#11"},
				"up": {"uv": [5, 3, 4, 2.5], "texture": "#11"},
				"down": {"uv": [5, 3, 4, 3.5], "texture": "#11"}
			}
		},
		{
			"name": "octagon",
			"from": [1.50427, 3.01063, 15.14416],
			"to": [2.37047, 5.10182, 15.84923],
			"rotation": {"angle": 45, "axis": "z", "origin": [8, 10.11886, 7.02465]},
			"faces": {
				"north": {"uv": [1.5, 4.5, 2, 5.5], "texture": "#11"},
				"east": {"uv": [2, 4.5, 2.5, 5.5], "texture": "#11"},
				"south": {"uv": [2.5, 4.5, 3, 5.5], "texture": "#11"},
				"west": {"uv": [3, 4.5, 3.5, 5.5], "texture": "#11"},
				"up": {"uv": [8.5, 0.5, 8, 0], "texture": "#11"},
				"down": {"uv": [8.5, 0.5, 8, 1], "texture": "#11"}
			}
		},
		{
			"name": "octagon",
			"from": [7.5669, 0.4994, 15.14416],
			"to": [8.4331, 2.5906, 15.84923],
			"rotation": {"angle": 0, "axis": "y", "origin": [8, 10.11886, 7.02465]},
			"faces": {
				"north": {"uv": [3.5, 4.5, 4, 5.5], "texture": "#11"},
				"east": {"uv": [4, 4.5, 4.5, 5.5], "texture": "#11"},
				"south": {"uv": [4.5, 4.5, 5, 5.5], "texture": "#11"},
				"west": {"uv": [0, 5, 0.5, 6], "texture": "#11"},
				"up": {"uv": [8.5, 2.5, 8, 2], "texture": "#11"},
				"down": {"uv": [8.5, 2.5, 8, 3], "texture": "#11"}
			}
		},
		{
			"name": "octagon",
			"from": [0.89177, 3.62312, 15.14416],
			"to": [2.98297, 4.48933, 15.84923],
			"rotation": {"angle": 45, "axis": "z", "origin": [8, 10.11886, 7.02465]},
			"faces": {
				"north": {"uv": [4, 3.5, 5, 4], "texture": "#11"},
				"east": {"uv": [8, 3, 8.5, 3.5], "texture": "#11"},
				"south": {"uv": [0.5, 5, 1.5, 5.5], "texture": "#11"},
				"west": {"uv": [8, 3.5, 8.5, 4], "texture": "#11"},
				"up": {"uv": [6, 5.5, 5, 5], "texture": "#11"},
				"down": {"uv": [6, 0, 5, 0.5], "texture": "#11"}
			}
		},
		{
			"name": "octagon",
			"from": [6.9544, 1.1119, 15.14416],
			"to": [9.0456, 1.9781, 15.84923],
			"rotation": {"angle": 0, "axis": "y", "origin": [8, 10.11886, 7.02465]},
			"faces": {
				"north": {"uv": [5, 0.5, 6, 1], "texture": "#11"},
				"east": {"uv": [8, 4, 8.5, 4.5], "texture": "#11"},
				"south": {"uv": [5, 1, 6, 1.5], "texture": "#11"},
				"west": {"uv": [8, 4.5, 8.5, 5], "texture": "#11"},
				"up": {"uv": [6, 2, 5, 1.5], "texture": "#11"},
				"down": {"uv": [6, 2, 5, 2.5], "texture": "#11"}
			}
		},
		{
			"name": "octagon",
			"from": [3.19316, 2.62956, 15.71945],
			"to": [3.83415, 4.17705, 16.73395],
			"rotation": {"angle": 45, "axis": "z", "origin": [8, 7.88965, 9.35836]},
			"faces": {
				"north": {"uv": [5, 2.5, 5.5, 3.5], "texture": "#11"},
				"east": {"uv": [5, 3.5, 5.5, 4.5], "texture": "#11"},
				"south": {"uv": [0.5, 5.5, 1, 6.5], "texture": "#11"},
				"west": {"uv": [1, 5.5, 1.5, 6.5], "texture": "#11"},
				"up": {"uv": [8.5, 5.5, 8, 5], "texture": "#11"},
				"down": {"uv": [8.5, 5.5, 8, 6], "texture": "#11"}
			}
		},
		{
			"name": "octagon",
			"from": [7.67951, 0.77126, 15.71945],
			"to": [8.32049, 2.31874, 16.73395],
			"rotation": {"angle": 0, "axis": "y", "origin": [8, 7.88965, 9.35836]},
			"faces": {
				"north": {"uv": [1.5, 5.5, 2, 6.5], "texture": "#11"},
				"east": {"uv": [2, 5.5, 2.5, 6.5], "texture": "#11"},
				"south": {"uv": [2.5, 5.5, 3, 6.5], "texture": "#11"},
				"west": {"uv": [3, 5.5, 3.5, 6.5], "texture": "#11"},
				"up": {"uv": [8.5, 6.5, 8, 6], "texture": "#11"},
				"down": {"uv": [8.5, 6.5, 8, 7], "texture": "#11"}
			}
		},
		{
			"name": "octagon",
			"from": [2.73991, 3.08281, 15.71945],
			"to": [4.2874, 3.7238, 16.73395],
			"rotation": {"angle": 45, "axis": "z", "origin": [8, 7.88965, 9.35836]},
			"faces": {
				"north": {"uv": [5, 4.5, 6, 5], "texture": "#11"},
				"east": {"uv": [8, 7, 8.5, 7.5], "texture": "#11"},
				"south": {"uv": [3.5, 5.5, 4.5, 6], "texture": "#11"},
				"west": {"uv": [0, 8.5, 0.5, 9], "texture": "#11"},
				"up": {"uv": [5.5, 6, 4.5, 5.5], "texture": "#11"},
				"down": {"uv": [6.5, 5.5, 5.5, 6], "texture": "#11"}
			}
		},
		{
			"name": "octagon",
			"from": [7.22626, 1.22451, 15.71945],
			"to": [8.77374, 1.86549, 16.73395],
			"rotation": {"angle": 0, "axis": "y", "origin": [8, 7.88965, 9.35836]},
			"faces": {
				"north": {"uv": [5.5, 2.5, 6.5, 3], "texture": "#11"},
				"east": {"uv": [0.5, 8.5, 1, 9], "texture": "#11"},
				"south": {"uv": [5.5, 3, 6.5, 3.5], "texture": "#11"},
				"west": {"uv": [1, 8.5, 1.5, 9], "texture": "#11"},
				"up": {"uv": [6.5, 4, 5.5, 3.5], "texture": "#11"},
				"down": {"uv": [6.5, 4, 5.5, 4.5], "texture": "#11"}
			}
		},
		{
			"name": "octagon",
			"from": [1.50427, 3.01063, 16.60416],
			"to": [2.37047, 5.10182, 17.30923],
			"rotation": {"angle": 45, "axis": "z", "origin": [8, 10.11886, 7.02465]},
			"faces": {
				"north": {"uv": [0, 6, 0.5, 7], "texture": "#11"},
				"east": {"uv": [3.5, 6, 4, 7], "texture": "#11"},
				"south": {"uv": [4, 6, 4.5, 7], "texture": "#11"},
				"west": {"uv": [4.5, 6, 5, 7], "texture": "#11"},
				"up": {"uv": [2, 9, 1.5, 8.5], "texture": "#11"},
				"down": {"uv": [2.5, 8.5, 2, 9], "texture": "#11"}
			}
		},
		{
			"name": "octagon",
			"from": [7.5669, 0.4994, 16.60416],
			"to": [8.4331, 2.5906, 17.30923],
			"rotation": {"angle": 0, "axis": "y", "origin": [8, 10.11886, 7.02465]},
			"faces": {
				"north": {"uv": [5, 6, 5.5, 7], "texture": "#11"},
				"east": {"uv": [5.5, 6, 6, 7], "texture": "#11"},
				"south": {"uv": [6, 6, 6.5, 7], "texture": "#11"},
				"west": {"uv": [6, 0, 6.5, 1], "texture": "#11"},
				"up": {"uv": [3, 9, 2.5, 8.5], "texture": "#11"},
				"down": {"uv": [3.5, 8.5, 3, 9], "texture": "#11"}
			}
		},
		{
			"name": "octagon",
			"from": [0.89177, 3.62312, 16.60416],
			"to": [2.98297, 4.48933, 17.30923],
			"rotation": {"angle": 45, "axis": "z", "origin": [8, 10.11886, 7.02465]},
			"faces": {
				"north": {"uv": [6, 1, 7, 1.5], "texture": "#11"},
				"east": {"uv": [3.5, 8.5, 4, 9], "texture": "#11"},
				"south": {"uv": [6, 1.5, 7, 2], "texture": "#11"},
				"west": {"uv": [4, 8.5, 4.5, 9], "texture": "#11"},
				"up": {"uv": [7, 2.5, 6, 2], "texture": "#11"},
				"down": {"uv": [7, 4.5, 6, 5], "texture": "#11"}
			}
		},
		{
			"name": "octagon",
			"from": [6.9544, 1.1119, 16.60416],
			"to": [9.0456, 1.9781, 17.30923],
			"rotation": {"angle": 0, "axis": "y", "origin": [8, 10.11886, 7.02465]},
			"faces": {
				"north": {"uv": [6, 5, 7, 5.5], "texture": "#11"},
				"east": {"uv": [4.5, 8.5, 5, 9], "texture": "#11"},
				"south": {"uv": [0.5, 6.5, 1.5, 7], "texture": "#11"},
				"west": {"uv": [5, 8.5, 5.5, 9], "texture": "#11"},
				"up": {"uv": [2.5, 7, 1.5, 6.5], "texture": "#11"},
				"down": {"uv": [3.5, 6.5, 2.5, 7], "texture": "#11"}
			}
		},
		{
			"name": "octagon",
			"from": [1.50427, 3.01063, 18.24666],
			"to": [2.37047, 5.10182, 18.76923],
			"rotation": {"angle": 45, "axis": "z", "origin": [8, 10.11886, 7.02465]},
			"faces": {
				"north": {"uv": [6.5, 6.5, 7, 7.5], "texture": "#11"},
				"east": {"uv": [6.5, 0, 7, 1], "texture": "#11"},
				"south": {"uv": [6.5, 2.5, 7, 3.5], "texture": "#11"},
				"west": {"uv": [6.5, 3.5, 7, 4.5], "texture": "#11"},
				"up": {"uv": [6, 9, 5.5, 8.5], "texture": "#11"},
				"down": {"uv": [6.5, 8.5, 6, 9], "texture": "#11"}
			}
		},
		{
			"name": "octagon",
			"from": [7.5669, 0.4994, 18.24666],
			"to": [8.4331, 2.5906, 18.76923],
			"rotation": {"angle": 0, "axis": "y", "origin": [8, 10.11886, 7.02465]},
			"faces": {
				"north": {"uv": [6.5, 5.5, 7, 6.5], "texture": "#11"},
				"east": {"uv": [0, 7, 0.5, 8], "texture": "#11"},
				"south": {"uv": [0.5, 7, 1, 8], "texture": "#11"},
				"west": {"uv": [1, 7, 1.5, 8], "texture": "#11"},
				"up": {"uv": [7, 9, 6.5, 8.5], "texture": "#11"},
				"down": {"uv": [7.5, 8.5, 7, 9], "texture": "#11"}
			}
		},
		{
			"name": "octagon",
			"from": [0.89177, 3.62312, 18.24666],
			"to": [2.98297, 4.48933, 18.76923],
			"rotation": {"angle": 45, "axis": "z", "origin": [8, 10.11886, 7.02465]},
			"faces": {
				"north": {"uv": [1.5, 7, 2.5, 7.5], "texture": "#11"},
				"east": {"uv": [7.5, 8.5, 8, 9], "texture": "#11"},
				"south": {"uv": [2.5, 7, 3.5, 7.5], "texture": "#11"},
				"west": {"uv": [8, 8.5, 8.5, 9], "texture": "#11"},
				"up": {"uv": [4.5, 7.5, 3.5, 7], "texture": "#11"},
				"down": {"uv": [5.5, 7, 4.5, 7.5], "texture": "#11"}
			}
		},
		{
			"name": "octagon",
			"from": [6.9544, 1.1119, 18.24666],
			"to": [9.0456, 1.9781, 18.76923],
			"rotation": {"angle": 0, "axis": "y", "origin": [8, 10.11886, 7.02465]},
			"faces": {
				"north": {"uv": [5.5, 7, 6.5, 7.5], "texture": "#11"},
				"east": {"uv": [8.5, 8.5, 9, 9], "texture": "#11"},
				"south": {"uv": [7, 7, 8, 7.5], "texture": "#11"},
				"west": {"uv": [8.5, 0, 9, 0.5], "texture": "#11"},
				"up": {"uv": [8, 0.5, 7, 0], "texture": "#11"},
				"down": {"uv": [8, 0.5, 7, 1], "texture": "#11"}
			}
		},
		{
			"name": "octagon",
			"from": [0.24464, 3.29483, 17.04507],
			"to": [1.27881, 5.79155, 18.32833],
			"rotation": {"angle": 45, "axis": "z", "origin": [8, 11.78147, 5.90447]},
			"faces": {
				"north": {"uv": [7, 1, 7.5, 2], "texture": "#11"},
				"east": {"uv": [7, 2, 7.5, 3], "texture": "#11"},
				"south": {"uv": [7, 3, 7.5, 4], "texture": "#11"},
				"west": {"uv": [7, 4, 7.5, 5], "texture": "#11"},
				"up": {"uv": [9, 1, 8.5, 0.5], "texture": "#11"},
				"down": {"uv": [9, 1, 8.5, 1.5], "texture": "#11"}
			}
		},
		{
			"name": "octagon",
			"from": [7.48291, 0.29664, 17.04507],
			"to": [8.51709, 2.79336, 18.32833],
			"rotation": {"angle": 0, "axis": "y", "origin": [8, 11.78147, 5.90447]},
			"faces": {
				"north": {"uv": [7, 5, 7.5, 6], "texture": "#11"},
				"east": {"uv": [7, 6, 7.5, 7], "texture": "#11"},
				"south": {"uv": [1.5, 7.5, 2, 8.5], "texture": "#11"},
				"west": {"uv": [2, 7.5, 2.5, 8.5], "texture": "#11"},
				"up": {"uv": [9, 2, 8.5, 1.5], "texture": "#11"},
				"down": {"uv": [9, 2, 8.5, 2.5], "texture": "#11"}
			}
		},
		{
			"name": "octagon",
			"from": [-0.48663, 4.02611, 17.04507],
			"to": [2.01008, 5.06028, 18.32833],
			"rotation": {"angle": 45, "axis": "z", "origin": [8, 11.78147, 5.90447]},
			"faces": {
				"north": {"uv": [2.5, 7.5, 3.5, 8], "texture": "#11"},
				"east": {"uv": [8.5, 2.5, 9, 3], "texture": "#11"},
				"south": {"uv": [3.5, 7.5, 4.5, 8], "texture": "#11"},
				"west": {"uv": [8.5, 3, 9, 3.5], "texture": "#11"},
				"up": {"uv": [5.5, 8, 4.5, 7.5], "texture": "#11"},
				"down": {"uv": [6.5, 7.5, 5.5, 8], "texture": "#11"}
			}
		},
		{
			"name": "octagon",
			"from": [6.75164, 1.02791, 17.04507],
			"to": [9.24836, 2.06209, 18.32833],
			"rotation": {"angle": 0, "axis": "y", "origin": [8, 11.78147, 5.90447]},
			"faces": {
				"north": {"uv": [6.5, 7.5, 7.5, 8], "texture": "#11"},
				"east": {"uv": [8.5, 3.5, 9, 4], "texture": "#11"},
				"south": {"uv": [7.5, 7.5, 8.5, 8], "texture": "#11"},
				"west": {"uv": [8.5, 4, 9, 4.5], "texture": "#11"},
				"up": {"uv": [8.5, 1.5, 7.5, 1], "texture": "#11"},
				"down": {"uv": [8.5, 1.5, 7.5, 2], "texture": "#11"}
			}
		},
		{
			"name": "octagon",
			"from": [-0.70462, 3.50901, 17.49418],
			"to": [0.45614, 6.31133, 17.75921],
			"rotation": {"angle": 45, "axis": "z", "origin": [8, 13.03441, 4.55622]},
			"faces": {
				"north": {"uv": [0, 0, 0.5, 1.5], "texture": "#11"},
				"east": {"uv": [0.5, 0.5, 1, 2], "texture": "#11"},
				"south": {"uv": [1, 1, 1.5, 2.5], "texture": "#11"},
				"west": {"uv": [0, 1.5, 0.5, 3], "texture": "#11"},
				"up": {"uv": [9, 5, 8.5, 4.5], "texture": "#11"},
				"down": {"uv": [9, 5, 8.5, 5.5], "texture": "#11"}
			}
		},
		{
			"name": "octagon",
			"from": [7.41962, 0.14384, 17.49418],
			"to": [8.58038, 2.94616, 17.75921],
			"rotation": {"angle": 0, "axis": "y", "origin": [8, 13.03441, 4.55622]},
			"faces": {
				"north": {"uv": [1.5, 1.5, 2, 3], "texture": "#11"},
				"east": {"uv": [1.5, 0, 2, 1.5], "texture": "#11"},
				"south": {"uv": [0.5, 2, 1, 3.5], "texture": "#11"},
				"west": {"uv": [2, 2, 2.5, 3.5], "texture": "#11"},
				"up": {"uv": [9, 6, 8.5, 5.5], "texture": "#11"},
				"down": {"uv": [9, 6, 8.5, 6.5], "texture": "#11"}
			}
		},
		{
			"name": "octagon",
			"from": [-1.5254, 4.32979, 17.49418],
			"to": [1.27692, 5.49055, 17.75921],
			"rotation": {"angle": 45, "axis": "z", "origin": [8, 13.03441, 4.55622]},
			"faces": {
				"north": {"uv": [2, 0, 3.5, 0.5], "texture": "#11"},
				"east": {"uv": [8.5, 6.5, 9, 7], "texture": "#11"},
				"south": {"uv": [2, 0.5, 3.5, 1], "texture": "#11"},
				"west": {"uv": [8.5, 7, 9, 7.5], "texture": "#11"},
				"up": {"uv": [3.5, 1.5, 2, 1], "texture": "#11"},
				"down": {"uv": [3.5, 1.5, 2, 2], "texture": "#11"}
			}
		},
		{
			"name": "octagon",
			"from": [6.59884, 0.96462, 17.49418],
			"to": [9.40116, 2.12538, 17.75921],
			"rotation": {"angle": 0, "axis": "y", "origin": [8, 13.03441, 4.55622]},
			"faces": {
				"north": {"uv": [2.5, 2.5, 4, 3], "texture": "#11"},
				"east": {"uv": [8.5, 7.5, 9, 8], "texture": "#11"},
				"south": {"uv": [2.5, 2, 4, 2.5], "texture": "#11"},
				"west": {"uv": [8.5, 8, 9, 8.5], "texture": "#11"},
				"up": {"uv": [4, 3.5, 2.5, 3], "texture": "#11"},
				"down": {"uv": [1.5, 3.5, 0, 4], "texture": "#11"}
			}
		},
		{
			"name": "octagon",
			"from": [5.54, 2.10005, 18.67307],
			"to": [5.86804, 2.89201, 19.62032],
			"rotation": {"angle": 45, "axis": "z", "origin": [8, 4.79201, 14.68837]},
			"faces": {
				"north": {"uv": [0, 9, 0.5, 9.5], "texture": "#11"},
				"east": {"uv": [0.5, 9, 1, 9.5], "texture": "#11"},
				"south": {"uv": [1, 9, 1.5, 9.5], "texture": "#11"},
				"west": {"uv": [1.5, 9, 2, 9.5], "texture": "#11"},
				"up": {"uv": [2.5, 9.5, 2, 9], "texture": "#11"},
				"down": {"uv": [3, 9, 2.5, 9.5], "texture": "#11"}
			}
		},
		{
			"name": "octagon",
			"from": [7.83598, 1.14902, 18.67307],
			"to": [8.16402, 1.94098, 19.62032],
			"rotation": {"angle": 0, "axis": "y", "origin": [8, 4.79201, 14.68837]},
			"faces": {
				"north": {"uv": [3, 9, 3.5, 9.5], "texture": "#11"},
				"east": {"uv": [3.5, 9, 4, 9.5], "texture": "#11"},
				"south": {"uv": [4, 9, 4.5, 9.5], "texture": "#11"},
				"west": {"uv": [4.5, 9, 5, 9.5], "texture": "#11"},
				"up": {"uv": [5.5, 9.5, 5, 9], "texture": "#11"},
				"down": {"uv": [6, 9, 5.5, 9.5], "texture": "#11"}
			}
		},
		{
			"name": "octagon",
			"from": [5.30804, 2.33201, 18.67307],
			"to": [6.1, 2.66005, 19.62032],
			"rotation": {"angle": 45, "axis": "z", "origin": [8, 4.79201, 14.68837]},
			"faces": {
				"north": {"uv": [6, 9, 6.5, 9.5], "texture": "#11"},
				"east": {"uv": [6.5, 9, 7, 9.5], "texture": "#11"},
				"south": {"uv": [7, 9, 7.5, 9.5], "texture": "#11"},
				"west": {"uv": [7.5, 9, 8, 9.5], "texture": "#11"},
				"up": {"uv": [8.5, 9.5, 8, 9], "texture": "#11"},
				"down": {"uv": [9, 9, 8.5, 9.5], "texture": "#11"}
			}
		},
		{
			"name": "octagon",
			"from": [7.60402, 1.38098, 18.67307],
			"to": [8.39598, 1.70902, 19.62032],
			"rotation": {"angle": 0, "axis": "y", "origin": [8, 4.79201, 14.68837]},
			"faces": {
				"north": {"uv": [9, 9, 9.5, 9.5], "texture": "#11"},
				"east": {"uv": [9, 0, 9.5, 0.5], "texture": "#11"},
				"south": {"uv": [9, 0.5, 9.5, 1], "texture": "#11"},
				"west": {"uv": [9, 1, 9.5, 1.5], "texture": "#11"},
				"up": {"uv": [9.5, 2, 9, 1.5], "texture": "#11"},
				"down": {"uv": [9.5, 2, 9, 2.5], "texture": "#11"}
			}
		}
	],
	"display": {
		"thirdperson_righthand": {
			"rotation": [90, 0, 0],
			"translation": [0, 0, 3],
			"scale": [0.5, 0.5, 0.5]
		},
		"thirdperson_lefthand": {
			"rotation": [90, 0, 0],
			"translation": [0, 0, 3],
			"scale": [0.5, 0.5, 0.5]
		},
		"firstperson_righthand": {
			"rotation": [90, 0, 30]
		},
		"firstperson_lefthand": {
			"rotation": [90, 0, 30]
		},
		"fixed": {
			"rotation": [90, 45, 0],
			"translation": [1.25, -1.75, 6]
		},
		"ground": {
			"translation": [0, 4, 0]
		},
		"gui": {
			"rotation": [90, 0, 30],
			"translation": [-3, 8, 0]
		}
	}
}