{
	"credit": "Made with Blockbench",
	"texture_size": [32, 32],
	"textures": {
		"27": "tardis:item/sonics/mk7_emitter",
		"particle": "tardis:item/sonics/mk1_emitter"
	},
	"elements": [
		{
			"name": "octagon",
			"from": [7.63385, 1.47363, -3.89232],
			"to": [7.8774, 1.72637, -2.80747],
			"rotation": {"angle": 0, "axis": "y", "origin": [7.99188, 6.29018, 6.92245]},
			"faces": {
				"north": {"uv": [1, 5, 1.5, 5.5], "texture": "#27"},
				"east": {"uv": [1.5, 5, 2, 5.5], "texture": "#27"},
				"south": {"uv": [2, 5, 2.5, 5.5], "texture": "#27"},
				"west": {"uv": [2.5, 5, 3, 5.5], "texture": "#27"},
				"up": {"uv": [3.5, 5.5, 3, 5], "texture": "#27"},
				"down": {"uv": [4, 5, 3.5, 5.5], "texture": "#27"}
			}
		},
		{
			"name": "octagon",
			"from": [7.63385, 1.47363, -4.67982],
			"to": [7.8774, 1.72637, -4.57935],
			"rotation": {"angle": 0, "axis": "y", "origin": [7.99188, 6.29018, 6.92245]},
			"faces": {
				"north": {"uv": [4, 5, 4.5, 5.5], "texture": "#27"},
				"east": {"uv": [4.5, 5, 5, 5.5], "texture": "#27"},
				"south": {"uv": [5, 5, 5.5, 5.5], "texture": "#27"},
				"west": {"uv": [5, 0.5, 5.5, 1], "texture": "#27"},
				"up": {"uv": [5.5, 1.5, 5, 1], "texture": "#27"},
				"down": {"uv": [5.5, 1.5, 5, 2], "texture": "#27"}
			}
		},
		{
			"name": "octagon",
			"from": [7.59447, 1.43426, -4.60107],
			"to": [7.91678, 1.76574, -3.8706],
			"rotation": {"angle": 0, "axis": "y", "origin": [7.99188, 6.29018, 6.92245]},
			"faces": {
				"north": {"uv": [5, 2, 5.5, 2.5], "texture": "#27"},
				"east": {"uv": [5, 2.5, 5.5, 3], "texture": "#27"},
				"south": {"uv": [5, 3, 5.5, 3.5], "texture": "#27"},
				"west": {"uv": [5, 3.5, 5.5, 4], "texture": "#27"},
				"up": {"uv": [5.5, 4.5, 5, 4], "texture": "#27"},
				"down": {"uv": [0.5, 5.5, 0, 6], "texture": "#27"}
			}
		},
		{
			"name": "octagon",
			"from": [8.06697, 1.59176, -3.38044],
			"to": [8.31053, 1.84449, -2.80747],
			"rotation": {"angle": 0, "axis": "y", "origin": [7.99188, 6.29018, 6.92245]},
			"faces": {
				"north": {"uv": [0.5, 5.5, 1, 6], "texture": "#27"},
				"east": {"uv": [1, 5.5, 1.5, 6], "texture": "#27"},
				"south": {"uv": [1.5, 5.5, 2, 6], "texture": "#27"},
				"west": {"uv": [2, 5.5, 2.5, 6], "texture": "#27"},
				"up": {"uv": [3, 6, 2.5, 5.5], "texture": "#27"},
				"down": {"uv": [3.5, 5.5, 3, 6], "texture": "#27"}
			}
		},
		{
			"name": "octagon",
			"from": [8.06697, 1.59176, -4.16794],
			"to": [8.31053, 1.84449, -4.06747],
			"rotation": {"angle": 0, "axis": "y", "origin": [7.99188, 6.29018, 6.92245]},
			"faces": {
				"north": {"uv": [3.5, 5.5, 4, 6], "texture": "#27"},
				"east": {"uv": [4, 5.5, 4.5, 6], "texture": "#27"},
				"south": {"uv": [4.5, 5.5, 5, 6], "texture": "#27"},
				"west": {"uv": [5, 5.5, 5.5, 6], "texture": "#27"},
				"up": {"uv": [6, 6, 5.5, 5.5], "texture": "#27"},
				"down": {"uv": [6, 0, 5.5, 0.5], "texture": "#27"}
			}
		},
		{
			"name": "octagon",
			"from": [8.0276, 1.55238, -4.08919],
			"to": [8.3499, 1.88387, -3.35872],
			"rotation": {"angle": 0, "axis": "y", "origin": [7.99188, 6.29018, 6.92245]},
			"faces": {
				"north": {"uv": [5.5, 0.5, 6, 1], "texture": "#27"},
				"east": {"uv": [5.5, 1, 6, 1.5], "texture": "#27"},
				"south": {"uv": [5.5, 1.5, 6, 2], "texture": "#27"},
				"west": {"uv": [5.5, 2, 6, 2.5], "texture": "#27"},
				"up": {"uv": [6, 3, 5.5, 2.5], "texture": "#27"},
				"down": {"uv": [6, 3, 5.5, 3.5], "texture": "#27"}
			}
		},
		{
			"name": "octagon",
			"from": [8.0276, 1.23738, -3.81357],
			"to": [8.27115, 1.49012, -2.80747],
			"rotation": {"angle": 0, "axis": "y", "origin": [7.99188, 6.29018, 6.92245]},
			"faces": {
				"north": {"uv": [5.5, 3.5, 6, 4], "texture": "#27"},
				"east": {"uv": [5.5, 4, 6, 4.5], "texture": "#27"},
				"south": {"uv": [5.5, 4.5, 6, 5], "texture": "#27"},
				"west": {"uv": [5.5, 5, 6, 5.5], "texture": "#27"},
				"up": {"uv": [0.5, 6.5, 0, 6], "texture": "#27"},
				"down": {"uv": [1, 6, 0.5, 6.5], "texture": "#27"}
			}
		},
		{
			"name": "octagon",
			"from": [8.0276, 1.23738, -4.60107],
			"to": [8.27115, 1.49012, -4.5006],
			"rotation": {"angle": 0, "axis": "y", "origin": [7.99188, 6.29018, 6.92245]},
			"faces": {
				"north": {"uv": [1, 6, 1.5, 6.5], "texture": "#27"},
				"east": {"uv": [1.5, 6, 2, 6.5], "texture": "#27"},
				"south": {"uv": [2, 6, 2.5, 6.5], "texture": "#27"},
				"west": {"uv": [2.5, 6, 3, 6.5], "texture": "#27"},
				"up": {"uv": [3.5, 6.5, 3, 6], "texture": "#27"},
				"down": {"uv": [4, 6, 3.5, 6.5], "texture": "#27"}
			}
		},
		{
			"name": "octagon",
			"from": [7.98822, 1.19801, -4.52232],
			"to": [8.31053, 1.52949, -3.79185],
			"rotation": {"angle": 0, "axis": "y", "origin": [7.99188, 6.29018, 6.92245]},
			"faces": {
				"north": {"uv": [4, 6, 4.5, 6.5], "texture": "#27"},
				"east": {"uv": [4.5, 6, 5, 6.5], "texture": "#27"},
				"south": {"uv": [5, 6, 5.5, 6.5], "texture": "#27"},
				"west": {"uv": [5.5, 6, 6, 6.5], "texture": "#27"},
				"up": {"uv": [6.5, 6.5, 6, 6], "texture": "#27"},
				"down": {"uv": [6.5, 0, 6, 0.5], "texture": "#27"}
			}
		},
		{
			"name": "octagon",
			"from": [3.91122, 2.46755, -2.72808],
			"to": [4.45646, 3.78386, -2.17004],
			"rotation": {"angle": 45, "axis": "z", "origin": [8, 6.94187, 7.67859]},
			"faces": {
				"north": {"uv": [6, 0.5, 6.5, 1], "texture": "#27"},
				"east": {"uv": [6, 1, 6.5, 1.5], "texture": "#27"},
				"south": {"uv": [6, 1.5, 6.5, 2], "texture": "#27"},
				"west": {"uv": [6, 2, 6.5, 2.5], "texture": "#27"},
				"up": {"uv": [6.5, 3, 6, 2.5], "texture": "#27"},
				"down": {"uv": [6.5, 3, 6, 3.5], "texture": "#27"}
			}
		},
		{
			"name": "octagon",
			"from": [7.72738, 0.88684, -2.72808],
			"to": [8.27262, 2.20316, -2.17004],
			"rotation": {"angle": 0, "axis": "y", "origin": [8, 6.94187, 7.67859]},
			"faces": {
				"north": {"uv": [6, 3.5, 6.5, 4], "texture": "#27"},
				"east": {"uv": [6, 4, 6.5, 4.5], "texture": "#27"},
				"south": {"uv": [6, 4.5, 6.5, 5], "texture": "#27"},
				"west": {"uv": [6, 5, 6.5, 5.5], "texture": "#27"},
				"up": {"uv": [6.5, 6, 6, 5.5], "texture": "#27"},
				"down": {"uv": [0.5, 6.5, 0, 7], "texture": "#27"}
			}
		},
		{
			"name": "octagon",
			"from": [3.52568, 2.85309, -2.72808],
			"to": [4.842, 3.39832, -2.17004],
			"rotation": {"angle": 45, "axis": "z", "origin": [8, 6.94187, 7.67859]},
			"faces": {
				"north": {"uv": [0.5, 6.5, 1, 7], "texture": "#27"},
				"east": {"uv": [1, 6.5, 1.5, 7], "texture": "#27"},
				"south": {"uv": [1.5, 6.5, 2, 7], "texture": "#27"},
				"west": {"uv": [2, 6.5, 2.5, 7], "texture": "#27"},
				"up": {"uv": [3, 7, 2.5, 6.5], "texture": "#27"},
				"down": {"uv": [3.5, 6.5, 3, 7], "texture": "#27"}
			}
		},
		{
			"name": "octagon",
			"from": [7.34184, 1.27238, -2.72808],
			"to": [8.65816, 1.81762, -2.17004],
			"rotation": {"angle": 0, "axis": "y", "origin": [8, 6.94187, 7.67859]},
			"faces": {
				"north": {"uv": [3.5, 6.5, 4, 7], "texture": "#27"},
				"east": {"uv": [4, 6.5, 4.5, 7], "texture": "#27"},
				"south": {"uv": [4.5, 6.5, 5, 7], "texture": "#27"},
				"west": {"uv": [5, 6.5, 5.5, 7], "texture": "#27"},
				"up": {"uv": [6, 7, 5.5, 6.5], "texture": "#27"},
				"down": {"uv": [6.5, 6.5, 6, 7], "texture": "#27"}
			}
		},
		{
			"name": "octagon",
			"from": [4.40187, 2.35684, -3.2868],
			"to": [4.88168, 3.5152, -2.67445],
			"rotation": {"angle": 45, "axis": "z", "origin": [8, 6.29424, 6.42547]},
			"faces": {
				"north": {"uv": [6.5, 6.5, 7, 7], "texture": "#27"},
				"east": {"uv": [6.5, 0, 7, 0.5], "texture": "#27"},
				"south": {"uv": [6.5, 0.5, 7, 1], "texture": "#27"},
				"west": {"uv": [6.5, 1, 7, 1.5], "texture": "#27"},
				"up": {"uv": [7, 2, 6.5, 1.5], "texture": "#27"},
				"down": {"uv": [7, 2, 6.5, 2.5], "texture": "#27"}
			}
		},
		{
			"name": "octagon",
			"from": [7.7601, 0.96582, -3.2868],
			"to": [8.2399, 2.12418, -2.67445],
			"rotation": {"angle": 0, "axis": "y", "origin": [8, 6.29424, 6.42547]},
			"faces": {
				"north": {"uv": [6.5, 2.5, 7, 3], "texture": "#27"},
				"east": {"uv": [6.5, 3, 7, 3.5], "texture": "#27"},
				"south": {"uv": [6.5, 3.5, 7, 4], "texture": "#27"},
				"west": {"uv": [6.5, 4, 7, 4.5], "texture": "#27"},
				"up": {"uv": [7, 5, 6.5, 4.5], "texture": "#27"},
				"down": {"uv": [7, 5, 6.5, 5.5], "texture": "#27"}
			}
		},
		{
			"name": "octagon",
			"from": [4.0626, 2.69612, -3.2868],
			"to": [5.22096, 3.17593, -2.67445],
			"rotation": {"angle": 45, "axis": "z", "origin": [8, 6.29424, 6.42547]},
			"faces": {
				"north": {"uv": [6.5, 5.5, 7, 6], "texture": "#27"},
				"east": {"uv": [6.5, 6, 7, 6.5], "texture": "#27"},
				"south": {"uv": [0, 7, 0.5, 7.5], "texture": "#27"},
				"west": {"uv": [0.5, 7, 1, 7.5], "texture": "#27"},
				"up": {"uv": [1.5, 7.5, 1, 7], "texture": "#27"},
				"down": {"uv": [2, 7, 1.5, 7.5], "texture": "#27"}
			}
		},
		{
			"name": "octagon",
			"from": [7.42082, 1.3051, -3.2868],
			"to": [8.57918, 1.7849, -2.67445],
			"rotation": {"angle": 0, "axis": "y", "origin": [8, 6.29424, 6.42547]},
			"faces": {
				"north": {"uv": [2, 7, 2.5, 7.5], "texture": "#27"},
				"east": {"uv": [2.5, 7, 3, 7.5], "texture": "#27"},
				"south": {"uv": [3, 7, 3.5, 7.5], "texture": "#27"},
				"west": {"uv": [3.5, 7, 4, 7.5], "texture": "#27"},
				"up": {"uv": [4.5, 7.5, 4, 7], "texture": "#27"},
				"down": {"uv": [5, 7, 4.5, 7.5], "texture": "#27"}
			}
		},
		{
			"name": "octagon",
			"from": [3.56339, 2.54603, -2.3187],
			"to": [4.15501, 3.97432, -0.60005],
			"rotation": {"angle": 45, "axis": "z", "origin": [8, 7.40098, 7.0503]},
			"faces": {
				"north": {"uv": [5, 7, 5.5, 7.5], "texture": "#27"},
				"east": {"uv": [2.5, 1, 3.5, 1.5], "texture": "#27"},
				"south": {"uv": [5.5, 7, 6, 7.5], "texture": "#27"},
				"west": {"uv": [0, 3, 1, 3.5], "texture": "#27"},
				"up": {"uv": [1.5, 4, 1, 3], "texture": "#27"},
				"down": {"uv": [2, 3, 1.5, 4], "texture": "#27"}
			}
		},
		{
			"name": "octagon",
			"from": [7.70419, 0.83085, -2.3187],
			"to": [8.29581, 2.25915, -0.60005],
			"rotation": {"angle": 0, "axis": "y", "origin": [8, 7.40098, 7.0503]},
			"faces": {
				"north": {"uv": [6, 7, 6.5, 7.5], "texture": "#27"},
				"east": {"uv": [2, 3, 3, 3.5], "texture": "#27"},
				"south": {"uv": [6.5, 7, 7, 7.5], "texture": "#27"},
				"west": {"uv": [3, 3, 4, 3.5], "texture": "#27"},
				"up": {"uv": [3.5, 1, 3, 0], "texture": "#27"},
				"down": {"uv": [3.5, 1.5, 3, 2.5], "texture": "#27"}
			}
		},
		{
			"name": "octagon",
			"from": [3.14505, 2.96437, -2.3187],
			"to": [4.57335, 3.55599, -0.60005],
			"rotation": {"angle": 45, "axis": "z", "origin": [8, 7.40098, 7.0503]},
			"faces": {
				"north": {"uv": [7, 7, 7.5, 7.5], "texture": "#27"},
				"east": {"uv": [3, 2.5, 4, 3], "texture": "#27"},
				"south": {"uv": [7, 0, 7.5, 0.5], "texture": "#27"},
				"west": {"uv": [0, 3.5, 1, 4], "texture": "#27"},
				"up": {"uv": [2.5, 4.5, 2, 3.5], "texture": "#27"},
				"down": {"uv": [3, 3.5, 2.5, 4.5], "texture": "#27"}
			}
		},
		{
			"name": "octagon",
			"from": [7.28585, 1.24919, -2.3187],
			"to": [8.71415, 1.84081, -0.60005],
			"rotation": {"angle": 0, "axis": "y", "origin": [8, 7.40098, 7.0503]},
			"faces": {
				"north": {"uv": [7, 0.5, 7.5, 1], "texture": "#27"},
				"east": {"uv": [3, 3.5, 4, 4], "texture": "#27"},
				"south": {"uv": [7, 1, 7.5, 1.5], "texture": "#27"},
				"west": {"uv": [3.5, 0, 4.5, 0.5], "texture": "#27"},
				"up": {"uv": [4, 1.5, 3.5, 0.5], "texture": "#27"},
				"down": {"uv": [4, 1.5, 3.5, 2.5], "texture": "#27"}
			}
		},
		{
			"name": "octagon",
			"from": [2.20401, 2.85274, -1.79904],
			"to": [2.9769, 4.71867, -1.11159],
			"rotation": {"angle": 45, "axis": "z", "origin": [8, 9.19525, 9.37857]},
			"faces": {
				"north": {"uv": [0, 0, 0.5, 1], "texture": "#27"},
				"east": {"uv": [0.5, 0.5, 1, 1.5], "texture": "#27"},
				"south": {"uv": [0, 1, 0.5, 2], "texture": "#27"},
				"west": {"uv": [1, 1, 1.5, 2], "texture": "#27"},
				"up": {"uv": [1, 0.5, 0.5, 0], "texture": "#27"},
				"down": {"uv": [0.5, 2, 0, 2.5], "texture": "#27"}
			}
		},
		{
			"name": "octagon",
			"from": [7.61355, 0.61204, -1.79904],
			"to": [8.38645, 2.47796, -1.11159],
			"rotation": {"angle": 0, "axis": "y", "origin": [8, 9.19525, 9.37857]},
			"faces": {
				"north": {"uv": [1, 0, 1.5, 1], "texture": "#27"},
				"east": {"uv": [0.5, 1.5, 1, 2.5], "texture": "#27"},
				"south": {"uv": [1.5, 1.5, 2, 2.5], "texture": "#27"},
				"west": {"uv": [1.5, 0, 2, 1], "texture": "#27"},
				"up": {"uv": [1.5, 2.5, 1, 2], "texture": "#27"},
				"down": {"uv": [5, 0.5, 4.5, 1], "texture": "#27"}
			}
		},
		{
			"name": "octagon",
			"from": [1.6575, 3.39926, -1.79904],
			"to": [3.52342, 4.17215, -1.11159],
			"rotation": {"angle": 45, "axis": "z", "origin": [8, 9.19525, 9.37857]},
			"faces": {
				"north": {"uv": [1.5, 1, 2.5, 1.5], "texture": "#27"},
				"east": {"uv": [4.5, 1, 5, 1.5], "texture": "#27"},
				"south": {"uv": [2, 2, 3, 2.5], "texture": "#27"},
				"west": {"uv": [4.5, 4, 5, 4.5], "texture": "#27"},
				"up": {"uv": [3, 0.5, 2, 0], "texture": "#27"},
				"down": {"uv": [3, 0.5, 2, 1], "texture": "#27"}
			}
		},
		{
			"name": "octagon",
			"from": [7.06704, 1.15855, -1.79904],
			"to": [8.93296, 1.93145, -1.11159],
			"rotation": {"angle": 0, "axis": "y", "origin": [8, 9.19525, 9.37857]},
			"faces": {
				"north": {"uv": [2, 1.5, 3, 2], "texture": "#27"},
				"east": {"uv": [0, 5, 0.5, 5.5], "texture": "#27"},
				"south": {"uv": [0, 2.5, 1, 3], "texture": "#27"},
				"west": {"uv": [0.5, 5, 1, 5.5], "texture": "#27"},
				"up": {"uv": [2, 3, 1, 2.5], "texture": "#27"},
				"down": {"uv": [3, 2.5, 2, 3], "texture": "#27"}
			}
		},
		{
			"name": "octagon",
			"from": [5.54695, 2.09848, -0.48141],
			"to": [5.87407, 2.8882, 0.95766],
			"rotation": {"angle": 45, "axis": "z", "origin": [8, 4.78283, 4.15062]},
			"faces": {
				"north": {"uv": [7, 1.5, 7.5, 2], "texture": "#27"},
				"east": {"uv": [7, 2, 7.5, 2.5], "texture": "#27"},
				"south": {"uv": [7, 2.5, 7.5, 3], "texture": "#27"},
				"west": {"uv": [7, 3, 7.5, 3.5], "texture": "#27"},
				"up": {"uv": [7.5, 4, 7, 3.5], "texture": "#27"},
				"down": {"uv": [7.5, 4, 7, 4.5], "texture": "#27"}
			}
		},
		{
			"name": "octagon",
			"from": [7.83644, 1.15014, -0.48141],
			"to": [8.16356, 1.93986, 0.95766],
			"rotation": {"angle": 0, "axis": "y", "origin": [8, 4.78283, 4.15062]},
			"faces": {
				"north": {"uv": [7, 4.5, 7.5, 5], "texture": "#27"},
				"east": {"uv": [7, 5, 7.5, 5.5], "texture": "#27"},
				"south": {"uv": [7, 5.5, 7.5, 6], "texture": "#27"},
				"west": {"uv": [7, 6, 7.5, 6.5], "texture": "#27"},
				"up": {"uv": [7.5, 7, 7, 6.5], "texture": "#27"},
				"down": {"uv": [0.5, 7.5, 0, 8], "texture": "#27"}
			}
		},
		{
			"name": "octagon",
			"from": [5.31565, 2.32978, -0.48141],
			"to": [6.10537, 2.65689, 0.95766],
			"rotation": {"angle": 45, "axis": "z", "origin": [8, 4.78283, 4.15062]},
			"faces": {
				"north": {"uv": [0.5, 7.5, 1, 8], "texture": "#27"},
				"east": {"uv": [1, 7.5, 1.5, 8], "texture": "#27"},
				"south": {"uv": [1.5, 7.5, 2, 8], "texture": "#27"},
				"west": {"uv": [2, 7.5, 2.5, 8], "texture": "#27"},
				"up": {"uv": [3, 8, 2.5, 7.5], "texture": "#27"},
				"down": {"uv": [3.5, 7.5, 3, 8], "texture": "#27"}
			}
		},
		{
			"name": "octagon",
			"from": [7.60514, 1.38144, -0.48141],
			"to": [8.39486, 1.70856, 0.95766],
			"rotation": {"angle": 0, "axis": "y", "origin": [8, 4.78283, 4.15062]},
			"faces": {
				"north": {"uv": [3.5, 7.5, 4, 8], "texture": "#27"},
				"east": {"uv": [4, 7.5, 4.5, 8], "texture": "#27"},
				"south": {"uv": [4.5, 7.5, 5, 8], "texture": "#27"},
				"west": {"uv": [5, 7.5, 5.5, 8], "texture": "#27"},
				"up": {"uv": [6, 8, 5.5, 7.5], "texture": "#27"},
				"down": {"uv": [6.5, 7.5, 6, 8], "texture": "#27"}
			}
		},
		{
			"name": "octagon",
			"from": [4.76198, 2.27559, 0.55459],
			"to": [5.19377, 3.31802, 0.73416],
			"rotation": {"angle": 45, "axis": "z", "origin": [8, 5.81893, 5.41762]},
			"faces": {
				"north": {"uv": [6.5, 7.5, 7, 8], "texture": "#27"},
				"east": {"uv": [7, 7.5, 7.5, 8], "texture": "#27"},
				"south": {"uv": [7.5, 7.5, 8, 8], "texture": "#27"},
				"west": {"uv": [7.5, 0, 8, 0.5], "texture": "#27"},
				"up": {"uv": [8, 1, 7.5, 0.5], "texture": "#27"},
				"down": {"uv": [8, 1, 7.5, 1.5], "texture": "#27"}
			}
		},
		{
			"name": "octagon",
			"from": [7.78411, 1.02379, 0.55459],
			"to": [8.21589, 2.06621, 0.73416],
			"rotation": {"angle": 0, "axis": "y", "origin": [8, 5.81893, 5.41762]},
			"faces": {
				"north": {"uv": [7.5, 1.5, 8, 2], "texture": "#27"},
				"east": {"uv": [7.5, 2, 8, 2.5], "texture": "#27"},
				"south": {"uv": [7.5, 2.5, 8, 3], "texture": "#27"},
				"west": {"uv": [7.5, 3, 8, 3.5], "texture": "#27"},
				"up": {"uv": [8, 4, 7.5, 3.5], "texture": "#27"},
				"down": {"uv": [8, 4, 7.5, 4.5], "texture": "#27"}
			}
		},
		{
			"name": "octagon",
			"from": [4.45666, 2.58091, 0.55459],
			"to": [5.49909, 3.0127, 0.73416],
			"rotation": {"angle": 45, "axis": "z", "origin": [8, 5.81893, 5.41762]},
			"faces": {
				"north": {"uv": [7.5, 4.5, 8, 5], "texture": "#27"},
				"east": {"uv": [7.5, 5, 8, 5.5], "texture": "#27"},
				"south": {"uv": [7.5, 5.5, 8, 6], "texture": "#27"},
				"west": {"uv": [7.5, 6, 8, 6.5], "texture": "#27"},
				"up": {"uv": [8, 7, 7.5, 6.5], "texture": "#27"},
				"down": {"uv": [8, 7, 7.5, 7.5], "texture": "#27"}
			}
		},
		{
			"name": "octagon",
			"from": [7.47879, 1.32911, 0.55459],
			"to": [8.52121, 1.76089, 0.73416],
			"rotation": {"angle": 0, "axis": "y", "origin": [8, 5.81893, 5.41762]},
			"faces": {
				"north": {"uv": [0, 8, 0.5, 8.5], "texture": "#27"},
				"east": {"uv": [0.5, 8, 1, 8.5], "texture": "#27"},
				"south": {"uv": [1, 8, 1.5, 8.5], "texture": "#27"},
				"west": {"uv": [1.5, 8, 2, 8.5], "texture": "#27"},
				"up": {"uv": [2.5, 8.5, 2, 8], "texture": "#27"},
				"down": {"uv": [3, 8, 2.5, 8.5], "texture": "#27"}
			}
		},
		{
			"name": "octagon",
			"from": [4.76198, 2.27559, 0.14834],
			"to": [5.19377, 3.31802, 0.32791],
			"rotation": {"angle": 45, "axis": "z", "origin": [8, 5.81893, 5.41762]},
			"faces": {
				"north": {"uv": [3, 8, 3.5, 8.5], "texture": "#27"},
				"east": {"uv": [3.5, 8, 4, 8.5], "texture": "#27"},
				"south": {"uv": [4, 8, 4.5, 8.5], "texture": "#27"},
				"west": {"uv": [4.5, 8, 5, 8.5], "texture": "#27"},
				"up": {"uv": [5.5, 8.5, 5, 8], "texture": "#27"},
				"down": {"uv": [6, 8, 5.5, 8.5], "texture": "#27"}
			}
		},
		{
			"name": "octagon",
			"from": [7.78411, 1.02379, 0.14834],
			"to": [8.21589, 2.06621, 0.32791],
			"rotation": {"angle": 0, "axis": "y", "origin": [8, 5.81893, 5.41762]},
			"faces": {
				"north": {"uv": [6, 8, 6.5, 8.5], "texture": "#27"},
				"east": {"uv": [6.5, 8, 7, 8.5], "texture": "#27"},
				"south": {"uv": [7, 8, 7.5, 8.5], "texture": "#27"},
				"west": {"uv": [7.5, 8, 8, 8.5], "texture": "#27"},
				"up": {"uv": [8.5, 8.5, 8, 8], "texture": "#27"},
				"down": {"uv": [8.5, 0, 8, 0.5], "texture": "#27"}
			}
		},
		{
			"name": "octagon",
			"from": [4.45666, 2.58091, 0.14834],
			"to": [5.49909, 3.0127, 0.32791],
			"rotation": {"angle": 45, "axis": "z", "origin": [8, 5.81893, 5.41762]},
			"faces": {
				"north": {"uv": [8, 0.5, 8.5, 1], "texture": "#27"},
				"east": {"uv": [8, 1, 8.5, 1.5], "texture": "#27"},
				"south": {"uv": [8, 1.5, 8.5, 2], "texture": "#27"},
				"west": {"uv": [8, 2, 8.5, 2.5], "texture": "#27"},
				"up": {"uv": [8.5, 3, 8, 2.5], "texture": "#27"},
				"down": {"uv": [8.5, 3, 8, 3.5], "texture": "#27"}
			}
		},
		{
			"name": "octagon",
			"from": [7.47879, 1.32911, 0.14834],
			"to": [8.52121, 1.76089, 0.32791],
			"rotation": {"angle": 0, "axis": "y", "origin": [8, 5.81893, 5.41762]},
			"faces": {
				"north": {"uv": [8, 3.5, 8.5, 4], "texture": "#27"},
				"east": {"uv": [8, 4, 8.5, 4.5], "texture": "#27"},
				"south": {"uv": [8, 4.5, 8.5, 5], "texture": "#27"},
				"west": {"uv": [8, 5, 8.5, 5.5], "texture": "#27"},
				"up": {"uv": [8.5, 6, 8, 5.5], "texture": "#27"},
				"down": {"uv": [8.5, 6, 8, 6.5], "texture": "#27"}
			}
		},
		{
			"name": "octagon",
			"from": [4.76198, 2.27559, -0.22666],
			"to": [5.19377, 3.31802, -0.04709],
			"rotation": {"angle": 45, "axis": "z", "origin": [8, 5.81893, 5.41762]},
			"faces": {
				"north": {"uv": [8, 6.5, 8.5, 7], "texture": "#27"},
				"east": {"uv": [8, 7, 8.5, 7.5], "texture": "#27"},
				"south": {"uv": [8, 7.5, 8.5, 8], "texture": "#27"},
				"west": {"uv": [0, 8.5, 0.5, 9], "texture": "#27"},
				"up": {"uv": [1, 9, 0.5, 8.5], "texture": "#27"},
				"down": {"uv": [1.5, 8.5, 1, 9], "texture": "#27"}
			}
		},
		{
			"name": "octagon",
			"from": [7.78411, 1.02379, -0.22666],
			"to": [8.21589, 2.06621, -0.04709],
			"rotation": {"angle": 0, "axis": "y", "origin": [8, 5.81893, 5.41762]},
			"faces": {
				"north": {"uv": [1.5, 8.5, 2, 9], "texture": "#27"},
				"east": {"uv": [2, 8.5, 2.5, 9], "texture": "#27"},
				"south": {"uv": [2.5, 8.5, 3, 9], "texture": "#27"},
				"west": {"uv": [3, 8.5, 3.5, 9], "texture": "#27"},
				"up": {"uv": [4, 9, 3.5, 8.5], "texture": "#27"},
				"down": {"uv": [4.5, 8.5, 4, 9], "texture": "#27"}
			}
		},
		{
			"name": "octagon",
			"from": [4.45666, 2.58091, -0.22666],
			"to": [5.49909, 3.0127, -0.04709],
			"rotation": {"angle": 45, "axis": "z", "origin": [8, 5.81893, 5.41762]},
			"faces": {
				"north": {"uv": [4.5, 8.5, 5, 9], "texture": "#27"},
				"east": {"uv": [5, 8.5, 5.5, 9], "texture": "#27"},
				"south": {"uv": [5.5, 8.5, 6, 9], "texture": "#27"},
				"west": {"uv": [6, 8.5, 6.5, 9], "texture": "#27"},
				"up": {"uv": [7, 9, 6.5, 8.5], "texture": "#27"},
				"down": {"uv": [7.5, 8.5, 7, 9], "texture": "#27"}
			}
		},
		{
			"name": "octagon",
			"from": [7.47879, 1.32911, -0.22666],
			"to": [8.52121, 1.76089, -0.04709],
			"rotation": {"angle": 0, "axis": "y", "origin": [8, 5.81893, 5.41762]},
			"faces": {
				"north": {"uv": [7.5, 8.5, 8, 9], "texture": "#27"},
				"east": {"uv": [8, 8.5, 8.5, 9], "texture": "#27"},
				"south": {"uv": [8.5, 8.5, 9, 9], "texture": "#27"},
				"west": {"uv": [8.5, 0, 9, 0.5], "texture": "#27"},
				"up": {"uv": [9, 1, 8.5, 0.5], "texture": "#27"},
				"down": {"uv": [9, 1, 8.5, 1.5], "texture": "#27"}
			}
		},
		{
			"name": "octagon",
			"from": [4.76198, 2.27559, -0.60166],
			"to": [5.19377, 3.31802, -0.42209],
			"rotation": {"angle": 45, "axis": "z", "origin": [8, 5.81893, 5.41762]},
			"faces": {
				"north": {"uv": [8.5, 1.5, 9, 2], "texture": "#27"},
				"east": {"uv": [8.5, 2, 9, 2.5], "texture": "#27"},
				"south": {"uv": [8.5, 2.5, 9, 3], "texture": "#27"},
				"west": {"uv": [8.5, 3, 9, 3.5], "texture": "#27"},
				"up": {"uv": [9, 4, 8.5, 3.5], "texture": "#27"},
				"down": {"uv": [9, 4, 8.5, 4.5], "texture": "#27"}
			}
		},
		{
			"name": "octagon",
			"from": [7.78411, 1.02379, -0.60166],
			"to": [8.21589, 2.06621, -0.42209],
			"rotation": {"angle": 0, "axis": "y", "origin": [8, 5.81893, 5.41762]},
			"faces": {
				"north": {"uv": [8.5, 4.5, 9, 5], "texture": "#27"},
				"east": {"uv": [8.5, 5, 9, 5.5], "texture": "#27"},
				"south": {"uv": [8.5, 5.5, 9, 6], "texture": "#27"},
				"west": {"uv": [8.5, 6, 9, 6.5], "texture": "#27"},
				"up": {"uv": [9, 7, 8.5, 6.5], "texture": "#27"},
				"down": {"uv": [9, 7, 8.5, 7.5], "texture": "#27"}
			}
		},
		{
			"name": "octagon",
			"from": [4.45666, 2.58091, -0.60166],
			"to": [5.49909, 3.0127, -0.42209],
			"rotation": {"angle": 45, "axis": "z", "origin": [8, 5.81893, 5.41762]},
			"faces": {
				"north": {"uv": [8.5, 7.5, 9, 8], "texture": "#27"},
				"east": {"uv": [8.5, 8, 9, 8.5], "texture": "#27"},
				"south": {"uv": [0, 9, 0.5, 9.5], "texture": "#27"},
				"west": {"uv": [0.5, 9, 1, 9.5], "texture": "#27"},
				"up": {"uv": [1.5, 9.5, 1, 9], "texture": "#27"},
				"down": {"uv": [2, 9, 1.5, 9.5], "texture": "#27"}
			}
		},
		{
			"name": "octagon",
			"from": [7.47879, 1.32911, -0.60166],
			"to": [8.52121, 1.76089, -0.42209],
			"rotation": {"angle": 0, "axis": "y", "origin": [8, 5.81893, 5.41762]},
			"faces": {
				"north": {"uv": [2, 9, 2.5, 9.5], "texture": "#27"},
				"east": {"uv": [2.5, 9, 3, 9.5], "texture": "#27"},
				"south": {"uv": [3, 9, 3.5, 9.5], "texture": "#27"},
				"west": {"uv": [3.5, 9, 4, 9.5], "texture": "#27"},
				"up": {"uv": [4.5, 9.5, 4, 9], "texture": "#27"},
				"down": {"uv": [5, 9, 4.5, 9.5], "texture": "#27"}
			}
		},
		{
			"name": "octagon",
			"from": [3.10956, 2.64843, 0.8254],
			"to": [3.76169, 4.22283, 1.0571],
			"rotation": {"angle": 45, "axis": "z", "origin": [8, 8, 8]},
			"faces": {
				"north": {"uv": [0, 4, 0.5, 5], "texture": "#27"},
				"east": {"uv": [0.5, 4, 1, 5], "texture": "#27"},
				"south": {"uv": [1, 4, 1.5, 5], "texture": "#27"},
				"west": {"uv": [1.5, 4, 2, 5], "texture": "#27"},
				"up": {"uv": [5.5, 9.5, 5, 9], "texture": "#27"},
				"down": {"uv": [6, 9, 5.5, 9.5], "texture": "#27"}
			}
		},
		{
			"name": "octagon",
			"from": [7.67393, 0.7578, 0.8254],
			"to": [8.32607, 2.3322, 1.0571],
			"faces": {
				"north": {"uv": [3, 4, 3.5, 5], "texture": "#27"},
				"east": {"uv": [3.5, 4, 4, 5], "texture": "#27"},
				"south": {"uv": [4, 4, 4.5, 5], "texture": "#27"},
				"west": {"uv": [4, 0.5, 4.5, 1.5], "texture": "#27"},
				"up": {"uv": [6.5, 9.5, 6, 9], "texture": "#27"},
				"down": {"uv": [7, 9, 6.5, 9.5], "texture": "#27"}
			}
		},
		{
			"name": "octagon",
			"from": [2.64843, 3.10956, 0.8254],
			"to": [4.22283, 3.76169, 1.0571],
			"rotation": {"angle": 45, "axis": "z", "origin": [8, 8, 8]},
			"faces": {
				"north": {"uv": [4, 1.5, 5, 2], "texture": "#27"},
				"east": {"uv": [7, 9, 7.5, 9.5], "texture": "#27"},
				"south": {"uv": [4, 2, 5, 2.5], "texture": "#27"},
				"west": {"uv": [7.5, 9, 8, 9.5], "texture": "#27"},
				"up": {"uv": [5, 3, 4, 2.5], "texture": "#27"},
				"down": {"uv": [5, 3, 4, 3.5], "texture": "#27"}
			}
		},
		{
			"name": "octagon",
			"from": [7.2128, 1.21893, 0.8254],
			"to": [8.7872, 1.87107, 1.0571],
			"faces": {
				"north": {"uv": [4, 3.5, 5, 4], "texture": "#27"},
				"east": {"uv": [8, 9, 8.5, 9.5], "texture": "#27"},
				"south": {"uv": [2, 4.5, 3, 5], "texture": "#27"},
				"west": {"uv": [8.5, 9, 9, 9.5], "texture": "#27"},
				"up": {"uv": [5.5, 5, 4.5, 4.5], "texture": "#27"},
				"down": {"uv": [5.5, 0, 4.5, 0.5], "texture": "#27"}
			}
		}
	],
	"display": {
		"thirdperson_righthand": {
			"rotation": [90, 0, 0],
			"translation": [0, 0, 3],
			"scale": [0.5, 0.5, 0.5]
		},
		"thirdperson_lefthand": {
			"rotation": [90, 0, 0],
			"translation": [0, 0, 3],
			"scale": [0.5, 0.5, 0.5]
		},
		"firstperson_righthand": {
			"rotation": [90, 0, 30]
		},
		"firstperson_lefthand": {
			"rotation": [90, 0, 30]
		},
		"fixed": {
			"rotation": [90, 45, 0],
			"translation": [1.25, -1.75, 6]
		},
		"ground": {
			"translation": [0, 4, 0]
		},
		"gui": {
			"rotation": [90, 0, 30],
			"translation": [-3, -8, 0]
		}
	}
}