{
	"lines":[
	"Temporal Grace Circuit"
	,""
	," This is the circuit responsible for keeping you capsule in a state of temporal grace.",
	""
	," Repaired in a Quantiscope with a circuit, an iron ingot, and a golden nugget"
	]
}