{
	"lines":[
	"Timeship Loyalty (Cont.)"
	,""
	," Loyalty can be inferred through the actions of your Timeship."
	,"E.g. A loyal Timeship will allow you access to administrative tasks such as changing the interior."
	]
}