{
 "parent": "tardis:interior/root",
  "display": {
    "icon": {
      "item": "minecraft:emerald"
    },
    "title": {
      "translate": "advancements.tardis.interior.envoy"
    },
    "description": {
      "translate": "advancements.tardis.interior.envoy.desc"
    },
    "frame": "task",
    "show_toast": true,
    "announce_to_chat": true,
    "hidden": false
  },
  "criteria": {
    "envoy": {
      "trigger": "envoy"
    },
    "traded": {
      "trigger": "minecraft:villager_trade",
      "conditions": {}
    }
  },
  "requirements": [
    [
      "envoy"
    ],
    [
      "traded"
    ]
  ]
}