{
	"lines":[
	"Flight Hazards (cont.)"
		,""
		,"Vortex Scrap"
		," Dangerous objects can damage your time-ship whilst it's in the Time Vortex."
		,"Randomise your coordinates and modify the Exterior facing to maneauver your time-ship out of harm's way."
	]
}