{
  "processing_ticks": 200,
  "ingredient": {
    "item": "minecraft:polished_blackstone"
  },
  "result": {
    "schematic": {
      "schematic_type": "tardis:imperial_interior"
    }
  },
  "type": "tardis:spectrometer"
}