{
  "processing_ticks": 200,
  "ingredient": {
    "item": "minecraft:quartz_pillar"
  },
  "result": {
    "schematic": {
      "schematic_type": "tardis:omega_interior"
    }
  },
  "type": "tardis:spectrometer"
}